<svg xmlns="http://www.w3.org/2000/svg" xmlns:xlink="http://www.w3.org/1999/xlink" width="48" height="48">
  <defs id="acyl-settings">
    <linearGradient x1="0%" y1="0%" x2="0%" y2="100%" id="acyl-gradient">
      <stop offset="0%" style="stop-color:#8FA1B3;stop-opacity:1.000000"/>
    </linearGradient>
    <g id="acyl-filter">
  </g>
    <g id="acyl-drawing">
      <path id="path-main" d="M 6.625 10 C 4.4437601 10 2.71875 11.855151 2.71875 14.0625 L 2.71875 26.90625 C 2.71875 26.980768 2.7461169 27.051342 2.75 27.125 C 2.7430289 27.304541 2.71875 27.475029 2.71875 27.65625 L 2.71875 40.53125 C 2.7187776 40.807381 2.9426191 41.031222 3.21875 41.03125 L 32.78125 41.03125 C 40.123609 41.03125 46.249999 35.002324 46.25 27.65625 L 46.25 14.8125 C 46.249972 14.536369 46.026131 14.312528 45.75 14.3125 L 43.375 14.3125 L 43.375 14.0625 C 43.375 11.855151 41.64999 10 39.46875 10 L 6.625 10 z M 6.625 12 L 39.46875 12 C 40.527421 12 41.375 12.881546 41.375 14.0625 L 41.375 14.3125 L 15.8125 14.3125 C 11.068956 14.3125 7.0124466 16.838243 4.71875 20.59375 L 4.71875 14.0625 C 4.71875 12.881546 5.5663292 12 6.625 12 z M 23.40625 19.65625 L 23.8125 19.65625 C 26.7375 19.65625 28.8125 21.324972 28.8125 24.25 L 28.8125 26.75 L 29.65625 26.71875 C 30.491964 26.71875 30.90625 27.164286 30.90625 28 L 30.90625 35.125 C 30.90625 35.534635 30.487751 36.33975 29.8125 36.34375 L 17.53125 36.34375 C 16.695536 36.34375 16.28125 35.534636 16.28125 35.125 L 16.28125 28 C 16.28125 27.164286 16.695536 26.75 17.53125 26.75 L 18.375 26.75 L 18.375 24.25 C 18.375 21.397668 20.48125 19.65625 23.40625 19.65625 z M 23.40625 21.71875 C 20.481201 21.71875 20.46875 24.226786 20.46875 25.0625 L 20.46875 26.75 L 26.71875 26.75 L 26.71875 25.0625 C 26.71875 24.226786 26.7375 21.71875 23.8125 21.71875 L 23.40625 21.71875 z M 23.53125 27.96875 C 22.478113 27.96875 21.65625 28.821863 21.65625 29.875 C 21.65625 30.470571 21.916021 30.994065 22.34375 31.34375 L 22.34375 33.4375 C 22.34375 34.124166 22.875835 34.6875 23.5625 34.6875 C 24.249165 34.6875 24.8125 34.124166 24.8125 33.4375 L 24.8125 31.28125 C 25.193064 30.932633 25.4375 30.431782 25.4375 29.875 C 25.4375 28.821863 24.584387 27.96875 23.53125 27.96875 z "/>
    </g>
  </defs>
  <g id="acyl-visual">
    <use id="visible1" transform="translate(24,24) scale(1.00) translate(-24,-24)" style="fill:url(#acyl-gradient)" xlink:href="#acyl-drawing"/>
  </g>
</svg>
