<svg xmlns="http://www.w3.org/2000/svg" xmlns:xlink="http://www.w3.org/1999/xlink" width="48" height="48">
  <defs id="acyl-settings">
    <linearGradient x1="0%" y1="0%" x2="0%" y2="100%" id="acyl-gradient">
      <stop offset="0%" style="stop-color:#8FA1B3;stop-opacity:1.000000"/>
    </linearGradient>
    <g id="acyl-filter">
  </g>
    <g id="acyl-drawing">
      <path d="M 6.625 10 C 4.4437601 10 2.71875 11.855151 2.71875 14.0625 L 2.71875 26.90625 C 2.71875 26.980768 2.7461169 27.051342 2.75 27.125 C 2.7430289 27.304541 2.71875 27.475029 2.71875 27.65625 L 2.71875 40.53125 C 2.7187776 40.807381 2.9426191 41.031222 3.21875 41.03125 L 32.78125 41.03125 C 40.123609 41.03125 46.249999 35.002324 46.25 27.65625 L 46.25 14.8125 C 46.249972 14.536369 46.026131 14.312528 45.75 14.3125 L 43.375 14.3125 L 43.375 14.0625 C 43.375 11.855151 41.64999 10 39.46875 10 L 6.625 10 z M 6.625 12 L 39.46875 12 C 40.527421 12 41.375 12.881546 41.375 14.0625 L 41.375 14.3125 L 15.8125 14.3125 C 11.068956 14.3125 7.0124466 16.838243 4.71875 20.59375 L 4.71875 14.0625 C 4.71875 12.881546 5.5663292 12 6.625 12 z M 21.34375 18.1875 C 21.388657 18.170302 21.447995 18.1875 21.5 18.1875 L 26.75 18.1875 C 26.958019 18.187499 27.125001 18.338884 27.125 18.53125 L 27.125 25.1875 L 33.78125 25.1875 C 33.973616 25.187499 34.124999 25.354479 34.125 25.5625 L 34.125 30.8125 C 34.124998 31.020523 33.973617 31.1875 33.78125 31.1875 L 27.125 31.1875 L 27.125 37.84375 C 27.125 38.03612 26.958023 38.1875 26.75 38.1875 L 21.5 38.1875 C 21.291978 38.187501 21.125001 38.036119 21.125 37.84375 L 21.125 31.1875 L 14.46875 31.1875 C 14.276381 31.187499 14.125 31.020524 14.125 30.8125 L 14.125 25.5625 C 14.125 25.354479 14.276381 25.1875 14.46875 25.1875 L 21.125 25.1875 L 21.125 18.53125 C 21.125 18.386974 21.209028 18.239094 21.34375 18.1875 z " id="path-main"/>
    </g>
  </defs>
  <g id="acyl-visual">
    <use id="visible1" transform="translate(24,24) scale(1.00) translate(-24,-24)" style="fill:url(#acyl-gradient)" xlink:href="#acyl-drawing"/>
  </g>
</svg>
