<svg xmlns="http://www.w3.org/2000/svg" xmlns:xlink="http://www.w3.org/1999/xlink" width="48" height="48">
  <defs id="acyl-settings">
    <linearGradient x1="0%" y1="0%" x2="0%" y2="100%" id="acyl-gradient">
      <stop offset="0%" style="stop-color:#8FA1B3;stop-opacity:1.000000"/>
    </linearGradient>
    <g id="acyl-filter">
  </g>
    <g id="acyl-drawing">
      <path id="path-main" d="M 6.625 10 C 4.4437601 10 2.71875 11.855151 2.71875 14.0625 L 2.71875 26.90625 C 2.71875 26.980768 2.7461169 27.051342 2.75 27.125 C 2.7430289 27.304541 2.71875 27.475029 2.71875 27.65625 L 2.71875 40.53125 C 2.7187776 40.807381 2.9426191 41.031222 3.21875 41.03125 L 32.78125 41.03125 C 40.123609 41.03125 46.249999 35.002324 46.25 27.65625 L 46.25 14.8125 C 46.249972 14.536369 46.026131 14.312528 45.75 14.3125 L 43.375 14.3125 L 43.375 14.0625 C 43.375 11.855151 41.64999 10 39.46875 10 L 6.625 10 z M 6.625 12 L 39.46875 12 C 40.527421 12 41.375 12.881546 41.375 14.0625 L 41.375 14.3125 L 15.8125 14.3125 C 11.068956 14.3125 7.0124466 16.838243 4.71875 20.59375 L 4.71875 14.0625 C 4.71875 12.881546 5.5663292 12 6.625 12 z M 30.34375 19.3125 L 32.5 21.46875 L 30.34375 23.40625 L 29.46875 23.5 L 25.5625 27.46875 L 30.875 32.8125 C 31.269094 33.208626 31.269094 33.822625 30.875 34.21875 L 30.09375 35 C 29.699657 35.396125 29.050344 35.396124 28.65625 35 L 23.34375 29.6875 L 22.625 30.40625 C 23.125177 31.189059 23.172565 32.109067 22.65625 32.625 L 19.34375 35.9375 C 18.711762 36.569023 17.48997 36.364333 16.625 35.5 L 16.28125 35.1875 C 15.41628 34.323168 15.243012 33.131523 15.875 32.5 L 19.21875 29.15625 C 19.756652 28.618748 20.694825 28.688564 21.5 29.25 L 22.21875 28.5 L 20.21875 26.5 C 19.326409 27.144453 18.148086 26.964731 17.34375 26.15625 L 16.15625 25 C 15.271557 24.110748 15.292212 22.683021 16.15625 21.78125 C 16.915925 22.593902 17.721609 23.359677 18.5 24.15625 L 19.4375 24.15625 L 20.0625 23.53125 L 20.0625 22.5625 L 17.6875 20.21875 C 18.584647 19.35026 20.021559 19.360748 20.90625 20.25 L 22.0625 21.4375 C 22.866835 22.245982 23.047398 23.41556 22.40625 24.3125 L 24.40625 26.3125 L 28.3125 22.34375 L 28.59375 21.3125 L 30.34375 19.3125 z "/>
    </g>
  </defs>
  <g id="acyl-visual">
    <use id="visible1" transform="translate(24,24) scale(1.00) translate(-24,-24)" style="fill:url(#acyl-gradient)" xlink:href="#acyl-drawing"/>
  </g>
</svg>
