<svg xmlns="http://www.w3.org/2000/svg" xmlns:xlink="http://www.w3.org/1999/xlink" width="48" height="48">
  <defs id="acyl-settings">
    <linearGradient x1="0%" y1="0%" x2="0%" y2="100%" id="acyl-gradient">
      <stop offset="0%" style="stop-color:#8FA1B3;stop-opacity:1.000000"/>
    </linearGradient>
    <g id="acyl-filter">
  </g>
    <g id="acyl-drawing">
      <path d="M 6.625 10 C 4.4437601 10 2.71875 11.855151 2.71875 14.0625 L 2.71875 26.90625 C 2.71875 26.980768 2.7461169 27.051342 2.75 27.125 C 2.7430289 27.304541 2.71875 27.475029 2.71875 27.65625 L 2.71875 40.53125 C 2.7187776 40.807381 2.9426191 41.031222 3.21875 41.03125 L 22.84375 41.03125 L 22.84375 42.8125 C 22.242555 43.078908 21.740313 43.572739 21.5 44.1875 L 2.34375 44.1875 C 2.3125169 44.186033 2.281233 44.186034 2.25 44.1875 C 1.6977149 44.213387 1.2866121 44.697715 1.3125 45.25 C 1.338388 45.802284 1.791465 46.213388 2.34375 46.1875 L 21.59375 46.1875 C 21.999997 47.019015 22.856519 47.593749 23.84375 47.59375 C 24.83098 47.593749 25.687502 47.019016 26.09375 46.1875 L 45.3125 46.1875 C 45.673135 46.192599 46.005693 45.998998 46.1875 45.6875 C 46.369305 45.376001 46.369306 44.998997 46.1875 44.6875 C 46.005692 44.376002 45.673136 44.1824 45.3125 44.1875 L 26.1875 44.1875 C 25.947187 43.572738 25.444944 43.078909 24.84375 42.8125 L 24.84375 41.03125 L 32.78125 41.03125 C 40.123609 41.03125 46.249999 35.002324 46.25 27.65625 L 46.25 14.8125 C 46.249972 14.536369 46.026131 14.312528 45.75 14.3125 L 43.375 14.3125 L 43.375 14.0625 C 43.375 11.855151 41.64999 10 39.46875 10 L 6.625 10 z M 6.625 12 L 39.46875 12 C 40.527421 12 41.375 12.881546 41.375 14.0625 L 41.375 14.3125 L 15.8125 14.3125 C 11.068956 14.3125 7.0124466 16.838243 4.71875 20.59375 L 4.71875 14.0625 C 4.71875 12.881546 5.5663292 12 6.625 12 z " id="path-main"/>
    </g>
  </defs>
  <g id="acyl-visual">
    <use id="visible1" transform="translate(24,24) scale(1.00) translate(-24,-24)" style="fill:url(#acyl-gradient)" xlink:href="#acyl-drawing"/>
  </g>
</svg>
