<svg xmlns="http://www.w3.org/2000/svg" xmlns:xlink="http://www.w3.org/1999/xlink" width="48" height="48">
  <defs id="acyl-settings">
    <linearGradient x1="0%" y1="0%" x2="0%" y2="100%" id="acyl-gradient">
      <stop offset="0%" style="stop-color:#8FA1B3;stop-opacity:1.000000"/>
    </linearGradient>
    <g id="acyl-filter">
  </g>
    <g id="acyl-drawing">
      <path d="M 44.389445,5.5956322 L 43.115575,5.7589488 C 43.115575,5.7589488 18.095473,8.8293008 18.095473,8.8293008 L 17.115574,8.9599541 L 17.115574,9.9398536 L 17.115574,32.281564 C 15.324951,31.928176 13.284613,31.812711 11.007533,32.281564 C 8.5031002,32.797228 6.3512418,33.741239 4.8015025,34.927292 C 3.2517632,36.113346 2.1456992,37.714946 2.5477335,39.43483 C 2.9502104,41.156608 4.6073082,42.108363 6.5326584,42.570509 C 8.4580087,43.032655 10.855417,43.053396 13.359292,42.537846 C 15.716242,42.052548 17.900145,41.192632 19.565323,40.12076 C 21.205895,39.064726 22.470596,37.746873 22.439695,36.037845 L 22.668338,16.309201 C 24.246776,16.084138 36.749406,14.320383 38.836681,14.022768 L 38.836681,29.766488 C 33.840424,29.229379 30.304793,29.946756 28.057785,31.269001 C 25.613624,32.70726 24.537792,34.809314 24.95477,36.593122 C 25.357247,38.314899 27.014345,39.299318 28.939695,39.761464 C 30.865046,40.223609 33.229792,40.211688 35.733665,39.696137 C 37.956938,39.238362 39.88843,38.439622 41.351756,37.442368 C 42.815082,36.445114 43.909954,35.234813 44.128138,33.751413 L 44.356782,6.8695017 L 44.389445,5.5956322 z" id="path-main"/>
    </g>
  </defs>
  <g id="acyl-visual">
    <use id="visible1" transform="translate(24,24) scale(1.00) translate(-24,-24)" style="fill:url(#acyl-gradient)" xlink:href="#acyl-drawing"/>
  </g>
</svg>
