<svg xmlns="http://www.w3.org/2000/svg" xmlns:xlink="http://www.w3.org/1999/xlink" width="48" height="48">
  <defs id="acyl-settings">
    <linearGradient x1="0%" y1="0%" x2="0%" y2="100%" id="acyl-gradient">
      <stop offset="0%" style="stop-color:#8FA1B3;stop-opacity:1.000000"/>
    </linearGradient>
    <g id="acyl-filter">
  </g>
    <g id="acyl-drawing">
      <path d="M 10.336569,16.773424 C 7.9300649,32.735118 22.968736,42.081705 36.319853,46 L 35.235627,2.3120732 C 23.618652,0.6063543 13.501694,5.9578541 10.336569,16.773424 z m 17.85065,-7.726201 -0.158505,26.493186 c 0,0 -11.246813,-5.031596 -11.607596,-13.329601 0.465916,-6.462819 6.065749,-12.599383 11.766101,-13.163585 z m -3.793852,6.32121 c 0,0.360784 -3.571567,3.214539 -3.571567,5.74002 0,2.52548 4.273126,6.122687 4.273126,6.122687 L 24.393367,15.368433 z" id="path-main"/>
    </g>
  </defs>
  <g id="acyl-visual">
    <use id="visible1" transform="translate(24,24) scale(1.00) translate(-24,-24)" style="fill:url(#acyl-gradient)" xlink:href="#acyl-drawing"/>
  </g>
</svg>
