<svg xmlns="http://www.w3.org/2000/svg" xmlns:xlink="http://www.w3.org/1999/xlink" width="48" height="48">
  <defs id="acyl-settings">
    <linearGradient x1="0%" y1="0%" x2="0%" y2="100%" id="acyl-gradient">
      <stop offset="0%" style="stop-color:#8FA1B3;stop-opacity:1.000000"/>
    </linearGradient>
    <g id="acyl-filter">
  </g>
    <g id="acyl-drawing">
      <path d="m 37.124553,6.4689825 -12.878012,5.0560325 1.51681,4.669394 -0.684051,0.237931 -1.51681,-4.609912 -12.669822,4.966808 1.546551,3.717671 -0.684051,0.297414 L 10.208617,17.056909 2,20.268976 c 0.8486632,3.189647 -0.5970126,7.212256 0.892241,11.985771 1.8091277,5.798804 5.1875731,6.315325 7.732755,11.182753 4.533924,-1.911553 8.603756,-3.545341 12.342667,-5.056032 L 22.04568,36.0319 l 0.65431,-0.267672 0.951724,2.319826 c 5.214091,-2.101531 9.27697,-3.682091 12.729305,-4.996549 l -0.743534,-2.230603 0.743534,-0.267672 0.713792,2.230602 c 5.319565,-2.017569 8.535772,-3.152584 8.535772,-3.152584 C 44.867743,23.00189 47.370497,23.132944 44.827566,16.997426 43.11155,12.857059 39.718654,11.090095 37.124553,6.4689825 z m 3.777153,7.9706865 c 0.267455,-0.02572 0.533956,0.03852 0.773276,0.178448 0.380111,0.227669 0.562449,0.623031 0.565086,1.159913 0.0024,0.492772 -0.0728,1.080421 -0.237931,1.754741 -0.197204,0.816282 -0.422406,1.261864 -0.684052,1.338361 -0.214931,0.06285 -0.563846,-0.07818 -1.070689,-0.386638 0.226489,-0.56705 0.317915,-0.867437 0.327155,-0.892241 0.161617,-0.437604 0.254336,-0.718654 0.267672,-0.862499 l -0.208189,-0.05948 c -0.317723,0.09291 -0.695085,0.609451 -1.130172,1.576292 -0.384202,0.848863 -0.737514,1.816905 -1.040948,2.914654 -0.298766,1.096393 -0.448572,1.908935 -0.44612,2.409051 8.63e-4,0.176514 0.04192,0.312367 0.08922,0.416379 0.140132,-0.04834 0.325452,-0.273854 0.594827,-0.684052 0.220525,-0.328509 0.430693,-0.710571 0.624569,-1.10043 -0.04195,0.03436 -0.05945,0.0371 -0.05948,0.02974 -0.06651,0.02654 -0.128075,0.07461 -0.208189,0.148707 -0.08849,0.0848 -0.188534,0.155873 -0.267673,0.237931 -0.07764,-0.566513 -0.117238,-1.015074 -0.118965,-1.368103 -0.0039,-0.801655 0.661054,-1.395131 1.992671,-1.784482 0.130821,-0.03825 0.278499,0.149042 0.416379,0.594828 0.118894,0.392423 0.177255,0.709023 0.178449,0.951723 7.51e-4,0.154453 -0.04421,0.245819 -0.118966,0.267673 l -0.02974,0 c 0.0094,0.01934 0.02956,0.05245 0.02974,0.08922 0.0019,0.397156 -0.194259,0.953145 -0.565086,1.665516 -0.343017,0.66005 -0.733896,1.27616 -1.189654,1.843965 -0.46971,0.586614 -0.83411,0.933336 -1.100431,1.011206 -0.49994,0.146175 -0.923936,-0.0262 -1.249137,-0.505603 -0.311077,-0.461436 -0.471934,-1.101787 -0.475862,-1.903447 -0.0052,-1.059071 0.183301,-2.257082 0.565086,-3.598706 0.381784,-1.341612 0.888228,-2.509196 1.487068,-3.479739 0.65918,-1.069187 1.326232,-1.699885 2.022413,-1.903448 0.09228,-0.02698 0.17852,-0.05091 0.267672,-0.05948 z m -6.156462,1.665516 c 0.201338,0.02952 0.502162,0.21514 0.892241,0.565086 0.390032,0.342612 0.703543,0.527181 0.951723,0.565086 -0.315693,1.462241 -0.582295,3.074302 -0.803017,4.818101 -0.130601,1.039858 -0.301059,2.637115 -0.505603,4.818101 -0.341409,0.03353 -0.603706,-0.03738 -0.773275,-0.267672 -0.136583,-0.181022 -0.218899,-0.486685 -0.267673,-0.892241 -0.0049,-0.05011 -0.04357,-0.436738 -0.08922,-1.159913 -0.406208,0.177692 -0.997361,0.461627 -1.814223,0.862499 -0.245797,0.447495 -0.576608,1.388402 -0.981465,2.795689 -0.461564,-0.616297 -0.710549,-1.271268 -0.713793,-1.933189 -0.0022,-0.448634 0.274361,-1.448863 0.832758,-3.033619 0.52145,-1.485564 1.095615,-2.950596 1.725,-4.371981 0.650895,-1.467432 1.152555,-2.349396 1.457326,-2.676723 l 0.02974,-0.05948 0.05948,-0.02974 z m -3.182327,1.070689 c 0.231561,-0.01062 0.424355,0.01622 0.565086,0.08922 0.380004,0.205606 0.60942,0.759329 0.684052,1.665517 -0.112322,-0.004 -0.226077,0.02124 -0.356897,0.05948 -0.855041,0.250011 -1.390412,0.482967 -1.576292,0.743535 -0.13478,0.186719 -0.603927,1.717053 -1.427586,4.550429 -0.777661,2.672629 -1.246794,4.341351 -1.397844,5.02629 -0.216297,-0.216637 -0.442686,-0.436308 -0.65431,-0.65431 -0.291595,-0.305099 -0.415406,-0.544958 -0.416379,-0.743534 -0.0048,-0.970816 0.710758,-3.497594 2.141378,-7.554307 -0.135499,0.03963 -0.358824,0.16136 -0.624568,0.356897 -0.261111,0.18683 -0.459331,0.287544 -0.594828,0.327155 -0.154187,0.04509 -0.272411,-0.111812 -0.386637,-0.505604 -0.09514,-0.318339 -0.147266,-0.627787 -0.148707,-0.921982 -0.0023,-0.47069 0.49305,-0.983111 1.487068,-1.516809 0.648695,-0.344329 1.2663,-0.595669 1.873706,-0.773276 0.322389,-0.09426 0.601198,-0.138083 0.832758,-0.148707 z m 3.509482,1.457327 -0.20819,0.02974 c -1.156655,2.513157 -1.75617,3.932089 -1.754741,4.223274 3.94e-4,0.0809 0.006,0.141478 0.02974,0.20819 l -0.08922,0.208189 c 0.308046,-0.156352 0.776961,-0.392032 1.397844,-0.684051 L 35.072401,18.6332 z m -9.071117,2.379309 c 0.145666,0.126817 0.295772,0.261205 0.446121,0.386638 0.173916,0.162748 0.257132,0.354864 0.267672,0.594827 0.0011,0.235358 -0.338265,0.927384 -1.011207,2.052155 -0.547662,0.911385 -1.136196,2.067286 -1.784482,3.449998 -0.08802,0.180407 -0.651755,1.365245 -1.665516,3.598705 -0.140855,-0.09876 -0.259224,-0.255335 -0.386638,-0.475862 -0.150992,-0.257826 -0.236813,-0.485797 -0.237931,-0.713792 -0.0011,-0.227995 0.09613,-0.651294 0.327155,-1.249138 0.175566,-0.456418 0.363873,-0.852273 0.535345,-1.189654 -0.33821,-0.26937 -0.501099,-0.865145 -0.505603,-1.784482 -0.0024,-0.485404 0.07355,-1.134148 0.237931,-1.96293 0.191623,-0.99877 0.390951,-1.53772 0.624568,-1.606034 0.135496,-0.03961 0.314627,0.01467 0.535345,0.178448 0.244148,0.171673 0.385626,0.359162 0.386638,0.565086 2.86e-4,0.05884 -0.09837,0.470484 -0.267673,1.249137 -0.178475,0.818171 -0.271939,1.52178 -0.297413,2.052155 0.792011,-1.653055 1.728184,-3.374815 2.795688,-5.145257 z m -5.829308,1.457327 c 0.24653,0.0011 0.486378,0.121932 0.684052,0.356897 0.26352,0.305948 0.38393,0.727285 0.386638,1.278878 0.002,0.404514 -0.05646,0.882392 -0.20819,1.427586 -0.16547,0.608141 -0.371281,1.036475 -0.594827,1.249137 l -0.02974,0.02974 c -0.02333,0.01419 -0.03149,0.01419 -0.05948,0.02974 -0.154191,0.04509 -0.31607,-0.0039 -0.475862,-0.148707 -0.131694,-0.138256 -0.28002,-0.279479 -0.416379,-0.416379 0.402921,-0.84696 0.596013,-1.393065 0.594827,-1.635775 l -0.05948,-0.237931 -0.08922,-0.02974 c -0.210259,0.06148 -0.42735,0.331575 -0.65431,0.803017 -0.222292,0.470086 -0.328816,0.881085 -0.327155,1.219396 0.0019,0.382447 0.1218,0.688751 0.356896,0.921982 0.21615,0.187221 0.433482,0.379238 0.65431,0.565086 0.235235,0.262657 0.354586,0.629733 0.356897,1.10043 0.0036,0.73547 -0.166617,1.347409 -0.505603,1.873706 -0.306503,0.472607 -0.703735,0.779906 -1.189655,0.921983 -0.425184,0.124317 -0.867621,0.06087 -1.30862,-0.178449 -0.511411,-0.285018 -0.770248,-0.720568 -0.773276,-1.338361 -7.21e-4,-0.147093 0.109285,-0.445266 0.327155,-0.8625 0.15307,-0.273075 0.322828,-0.522582 0.475862,-0.803016 0.06797,0.503058 0.206137,0.883917 0.446121,1.159913 0.244618,0.267278 0.52609,0.336293 0.862499,0.237931 0.275665,-0.0806 0.417819,-0.270898 0.416379,-0.565086 -8.67e-4,-0.176511 -0.1176,-0.30986 -0.356896,-0.446121 -0.314382,-0.18059 -0.531786,-0.357576 -0.65431,-0.535344 -0.240272,-0.334832 -0.353582,-0.840176 -0.356896,-1.51681 -0.0045,-0.911975 0.216,-1.841011 0.684051,-2.765947 0.468011,-0.932276 1.001593,-1.497474 1.576292,-1.665516 0.08761,-0.02561 0.155755,-0.03011 0.237931,-0.02974 z m -9.219823,0.565086 c 0.288703,0.01364 0.517428,0.191872 0.684051,0.535345 0.18905,0.386646 0.293877,0.944767 0.297414,1.665516 -0.252888,-0.04389 -0.505251,-0.03992 -0.743534,0.02974 -0.345757,0.101102 -0.856564,0.410907 -1.546551,0.921982 l -0.5948274,1.724999 c 0.3543729,-0.250912 0.6190848,-0.401031 0.7732756,-0.44612 0.2943528,-0.08606 0.5297298,0.03509 0.7137928,0.356896 0.169893,0.296495 0.265325,0.681865 0.267672,1.159913 l 0,0.475862 c -0.04709,-0.05988 -0.101592,-0.140944 -0.148707,-0.208189 -0.03764,-0.04055 -0.0833,-0.04886 -0.148706,-0.02974 -0.205587,0.06011 -0.579886,0.279827 -1.1301723,0.65431 -0.550329,0.367138 -0.9393657,0.652044 -1.1301719,0.8625 -0.1536126,0.16276 -0.2759815,0.409209 -0.3866378,0.743534 l -0.2379309,0.892241 0,0.02974 c 0.5214608,-0.528092 0.9675372,-0.851993 1.3086201,-0.951723 0.2523025,-0.07377 0.4490221,0.130871 0.6245687,0.624568 0.1470727,0.413642 0.2357647,0.8376 0.2379309,1.278879 C 9.6090762,33.217235 9.4710091,33.157604 9.4056,33.176729 c -0.018693,0.0055 -0.015764,0.01829 -0.029741,0.02974 L 8.2456868,34.187935 C 7.6818464,34.662133 7.2913547,34.930842 7.0857735,34.990952 6.7867434,35.078383 6.5280596,34.922105 6.2827566,34.51509 6.0516139,34.133395 5.9282026,33.684525 5.9258603,33.20647 5.9207068,32.154754 6.9340697,28.875579 8.9892209,23.362078 l 0.4461205,0.446121 C 9.9995,23.400204 10.411772,23.165456 10.654737,23.094406 c 0.109799,-0.0321 0.20118,-0.06403 0.297414,-0.05948 z m 3.806895,1.130172 c 0.177942,0.029 0.438063,0.174548 0.743534,0.446121 0.305463,0.271588 0.551531,0.443624 0.743534,0.475861 -0.247084,1.140205 -0.474124,2.414027 -0.65431,3.836637 -0.112559,0.902007 -0.231075,2.19318 -0.386638,3.866377 -0.374078,0.05045 -0.649743,-0.121906 -0.773275,-0.505603 -0.06179,-0.195525 -0.112472,-0.656906 -0.148707,-1.368103 -0.331485,0.148479 -0.808487,0.398873 -1.457327,0.713793 -0.208706,0.377728 -0.460495,1.100373 -0.773275,2.200861 -0.367326,-0.481817 -0.562456,-0.979919 -0.565086,-1.51681 -0.0029,-0.588373 0.446259,-2.018297 1.338361,-4.253015 0.887536,-2.211279 1.505887,-3.493677 1.873706,-3.866378 l 0.05948,-0.02974 z m 0.118965,1.992672 c -0.944472,2.051171 -1.428741,3.184911 -1.427585,3.420257 1.78e-4,0.03678 -0.0025,0.149803 -0.02974,0.327155 0.242707,-0.122519 0.600922,-0.300911 1.100431,-0.535345 l 0.505603,-3.182326 -0.148707,0.02974 0,-0.05948 z" id="path-main"/>
    </g>
  </defs>
  <g id="acyl-visual">
    <use id="visible1" transform="translate(24,24) scale(1.00) translate(-24,-24)" style="fill:url(#acyl-gradient)" xlink:href="#acyl-drawing"/>
  </g>
</svg>
