<svg xmlns="http://www.w3.org/2000/svg" xmlns:xlink="http://www.w3.org/1999/xlink" width="48" height="48">
  <defs id="acyl-settings">
    <linearGradient x1="0%" y1="0%" x2="0%" y2="100%" id="acyl-gradient">
      <stop offset="0%" style="stop-color:#8FA1B3;stop-opacity:1.000000"/>
    </linearGradient>
    <g id="acyl-filter">
  </g>
    <g id="acyl-drawing">
      <path d="M 24.630198,2.0082234 A 21.999623,22.01207 0 0 0 2.114959,22.071308 l 43.770082,0 A 21.999623,22.01207 0 0 0 24.630198,2.0082234 z m -7.218627,3.8119859 c 0.763306,-0.00144 1.38493,0.2141954 1.747366,0.6878772 0.966497,1.2631512 -0.270844,3.8265415 -2.749953,5.7036485 -2.479108,1.877108 -5.278188,2.380952 -6.244684,1.1178 -0.9664963,-1.263151 0.270844,-3.8265404 2.749953,-5.7036481 1.549442,-1.1731921 3.225143,-1.8032706 4.497318,-1.8056776 z M 2.0003777,23.762339 a 21.999623,22.01207 0 0 0 0,0.257954 21.999623,22.01207 0 0 0 0.085936,1.633708 l 43.8273723,0 a 21.999623,22.01207 0 0 0 0.08594,-1.633708 21.999623,22.01207 0 0 0 0,-0.257954 l -43.9992443,0 z m 0.2864534,3.582694 a 21.999623,22.01207 0 0 0 0.3437441,1.948985 l 42.7102048,0 a 21.999623,22.01207 0 0 0 0.401034,-1.948985 l -43.4549829,0 z m 0.8307149,3.611355 a 21.999623,22.01207 0 0 0 41.736263,0 l -41.736263,0 z" id="path-main"/>
    </g>
  </defs>
  <g id="acyl-visual">
    <use id="visible1" transform="translate(24,24) scale(1.00) translate(-24,-24)" style="fill:url(#acyl-gradient)" xlink:href="#acyl-drawing"/>
  </g>
</svg>
