<svg xmlns="http://www.w3.org/2000/svg" xmlns:xlink="http://www.w3.org/1999/xlink" width="48" height="48">
  <defs id="acyl-settings">
    <linearGradient x1="0%" y1="0%" x2="0%" y2="100%" id="acyl-gradient">
      <stop offset="0%" style="stop-color:#8FA1B3;stop-opacity:1.000000"/>
    </linearGradient>
    <g id="acyl-filter">
  </g>
    <g id="acyl-drawing">
      <path d="m 7.0302829,3.2664397 c -0.9267494,0 -1.4965125,0.7714189 -1.6514257,1.6851283 L 2.0086007,21.39842 c -0.1044079,0.920862 0.75838,1.685128 1.6851282,1.685128 l 29.1864221,0 c 0.383589,-0.258082 0.838564,-0.426162 1.348102,-0.438133 0.528547,-0.01153 1.009825,0.163061 1.415508,0.438133 l 4.785764,0 c 0.926751,0 1.755325,-0.764212 1.651426,-1.685128 L 38.744397,4.951568 C 38.601559,4.0358925 37.986017,3.2664397 37.059269,3.2664397 l -30.0289861,0 z M 34.261956,24.263138 c -0.321321,0.0075 -0.640885,0.198689 -0.876267,0.606646 L 22.769381,43.271385 C 22.291768,44.099163 22.740871,44.788 23.67935,44.788 l 21.232616,0 c 1.076197,0 1.323644,-0.742211 0.876267,-1.516615 L 35.171925,24.869784 C 34.920057,24.433797 34.58328,24.256128 34.261956,24.263138 z M 3.6937289,24.768676 c -0.9267633,0 -1.6851282,0.724665 -1.6851282,1.651426 l 0,3.403959 c 0,0.926772 0.7583649,1.685128 1.6851282,1.685128 l 23.9962271,0 3.875795,-6.740513 -27.8720221,0 z m 33.2644321,0 3.875795,6.673108 c 0.72542,-0.18323 1.246995,-0.833828 1.246995,-1.617723 l 0,-3.403959 c 0,-0.926761 -0.724662,-1.651426 -1.651426,-1.651426 l -3.471364,0 z m -31.6467089,2.022154 4.1117129,0 c 0.3093054,0 0.5729436,0.229943 0.5729436,0.539241 l 0,1.584021 c 0,0.309308 -0.2636382,0.572943 -0.5729436,0.572943 l -4.1117129,0 c -0.3093065,0 -0.5392411,-0.263635 -0.5392411,-0.572943 l 0,-1.584021 c 0,-0.309298 0.2299346,-0.539241 0.5392411,-0.539241 z m 28.8493959,1.887344 c 0.543675,1.1e-5 0.971785,0.178111 1.280697,0.505538 0.315084,0.32746 0.471832,0.764547 0.471836,1.3144 -4e-6,0.753741 -0.14776,1.769531 -0.438133,3.066934 -0.327449,1.495121 -0.517346,2.51708 -0.572944,3.066933 -0.01238,0.345977 -0.02753,0.692634 -0.0337,1.04478 -0.03709,0.469549 -0.160673,0.765064 -0.370728,0.876266 -0.08031,0.04939 -0.185938,0.06741 -0.303323,0.06741 -0.284199,10e-6 -0.449936,-0.229221 -0.505539,-0.674052 -0.0061,-0.04325 0,-0.365724 0,-0.977374 -4e-6,-1.124415 -0.259564,-2.712706 -0.741456,-4.819467 -0.185347,-0.821695 -0.269621,-1.391932 -0.269621,-1.651426 0,-0.469528 0.123599,-0.861124 0.370728,-1.213292 0.278014,-0.395393 0.654999,-0.606635 1.112185,-0.606646 z m 0,10.919631 c 0.383042,0 0.699357,0.108441 0.977374,0.337026 0.296553,0.247134 0.471832,0.566807 0.471836,0.943671 -4e-6,0.413943 -0.138773,0.745415 -0.40443,1.011077 -0.259491,0.265663 -0.597144,0.404431 -1.011077,0.404431 -0.345982,0 -0.650488,-0.111245 -0.90997,-0.370728 -0.259486,-0.259483 -0.40443,-0.563992 -0.40443,-0.909969 0,-0.370696 0.129778,-0.699353 0.370728,-0.977375 0.240946,-0.28419 0.545453,-0.438133 0.909969,-0.438133 z" id="path-main"/>
    </g>
  </defs>
  <g id="acyl-visual">
    <use id="visible1" transform="translate(24,24) scale(1.00) translate(-24,-24)" style="fill:url(#acyl-gradient)" xlink:href="#acyl-drawing"/>
  </g>
</svg>
