<svg xmlns="http://www.w3.org/2000/svg" xmlns:xlink="http://www.w3.org/1999/xlink" width="48" height="48">
  <defs id="acyl-settings">
    <linearGradient x1="0%" y1="0%" x2="0%" y2="100%" id="acyl-gradient">
      <stop offset="0%" style="stop-color:#8FA1B3;stop-opacity:1.000000"/>
    </linearGradient>
    <g id="acyl-filter">
  </g>
    <g id="acyl-drawing">
      <path d="M 17.695652,2 C 17.033383,2 16.5,2.527703 16.5,3.171739 l 0,41.656522 C 16.5,45.472295 17.033383,46 17.695652,46 l 14.826087,0 c 0.662269,0 1.195652,-0.527705 1.195652,-1.171739 l 0,-41.656522 C 33.717391,2.527703 33.184008,2 32.521739,2 L 17.695652,2 z m 0.334783,0.382608 14.156521,0 c 0.632835,0 1.147826,0.514992 1.147826,1.147827 l 0,40.93913 c 0,0.632835 -0.514991,1.147826 -1.147826,1.147826 l -14.156521,0 c -0.632835,0 -1.147827,-0.514991 -1.147827,-1.147826 l 0,-40.93913 c 0,-0.632835 0.514992,-1.147826 1.147827,-1.147826 z m -0.765218,21.808696 0,10.330435 15.686957,0 0,-10.330435 -15.686957,0 z m 0,10.713044 0,9.565217 c 0,0.42087 0.344348,0.765217 0.765218,0.765217 l 14.156521,0 c 0.42087,0 0.765218,-0.344347 0.765218,-0.765217 l 0,-9.565217 -15.686957,0 z" id="path-main"/>
    </g>
  </defs>
  <g id="acyl-visual">
    <use id="visible1" transform="translate(24,24) scale(1.00) translate(-24,-24)" style="fill:url(#acyl-gradient)" xlink:href="#acyl-drawing"/>
  </g>
</svg>
