<svg xmlns="http://www.w3.org/2000/svg" xmlns:xlink="http://www.w3.org/1999/xlink" width="48" height="48">
  <defs id="acyl-settings">
    <linearGradient x1="0%" y1="0%" x2="0%" y2="100%" id="acyl-gradient">
      <stop offset="0%" style="stop-color:#8FA1B3;stop-opacity:1.000000"/>
    </linearGradient>
    <g id="acyl-filter">
  </g>
    <g id="acyl-drawing">
      <path d="M 9.78125,3 C 8.3502901,3 7.0628956,3.562941 6.125,4.5022355 6.027631,4.5965829 5.96875,4.7108127 5.96875,4.8464978 c 0,0.1356851 0.058881,0.2812111 0.15625,0.3755588 L 23.71875,22.842027 c 0.192825,0.182791 0.494675,0.182791 0.6875,0 L 41.9375,5.2846498 c 0.09737,-0.094347 0.15625,-0.2398738 0.15625,-0.3755589 0,-0.1356851 -0.05888,-0.2499146 -0.15625,-0.3442623 C 40.997503,3.5979619 39.708601,3 38.25,3 L 9.78125,3 z M 4.875,5.9418778 C 4.7443999,5.947043 4.6210099,6.003213 4.53125,6.0983607 3.5658216,7.0397573 2.96875,8.361878 2.96875,9.8226528 l 0,28.4798812 c 0,1.43309 0.5621033,2.753701 1.5,3.692995 0.094207,0.09752 0.2082668,0.156483 0.34375,0.156483 0.1354832,0 0.2807927,-0.05897 0.375,-0.156483 l 17.59375,-17.61997 c 0.09737,-0.09435 0.15625,-0.208578 0.15625,-0.344262 0,-0.135685 -0.05888,-0.281212 -0.15625,-0.375559 L 5.21875,6.0983607 C 5.1289901,6.003213 5.0056001,5.947043 4.875,5.9418778 z m 38.21875,0 c -0.1306,0.00517 -0.25399,0.061335 -0.34375,0.1564829 L 25.15625,23.718331 C 25.058881,23.812678 25,23.958205 25,24.09389 c 0,0.135685 0.05888,0.249915 0.15625,0.344262 L 42.6875,41.995529 c 0.09421,0.09752 0.239517,0.156483 0.375,0.156483 0.135483,0 0.249543,-0.05897 0.34375,-0.156483 0.965429,-0.941396 1.5625,-2.263517 1.5625,-3.724292 l 0,-28.4798808 c 0,-1.4330925 -0.562103,-2.7537021 -1.5,-3.6929955 -0.09726,-0.1029538 -0.233522,-0.1598148 -0.375,-0.1564829 z M 25.125,6.2548435 c 0.342627,7.5e-6 0.677322,0.00968 1,0.062593 0.322667,0.052924 0.621474,0.144546 0.9375,0.2503725 l 0,1.3457526 c -0.316027,-0.1488229 -0.595577,-0.2435061 -0.875,-0.3129657 -0.279433,-0.072755 -0.546383,-0.093883 -0.8125,-0.09389 -0.572166,6.1e-6 -1.024407,0.1519531 -1.34375,0.4694486 -0.31935,0.3141999 -0.509278,0.7865768 -0.5625,1.4083457 0.219548,-0.1620538 0.462605,-0.2961787 0.71875,-0.3755588 0.25614,-0.082678 0.541032,-0.1251814 0.84375,-0.1251863 0.76177,4.9e-6 1.378031,0.2140533 1.84375,0.657228 0.469033,0.4431835 0.687493,1.0349254 0.6875,1.7526084 -7e-6,0.793756 -0.258992,1.429532 -0.78125,1.909091 -0.522269,0.476252 -1.215552,0.719821 -2.09375,0.719821 -0.968022,0 -1.717758,-0.321961 -2.25,-0.970194 -0.528918,-0.651539 -0.812501,-1.591454 -0.8125,-2.785395 0,-1.2236993 0.318765,-2.1814367 0.9375,-2.8792846 C 23.184559,6.5864882 24.043876,6.254851 25.125,6.2548435 z M 4.9375,7.2250373 21.6875,24.031297 4.90625,40.837556 C 4.3601772,40.129875 3.96875,39.281619 3.96875,38.302534 l 0,-28.4798812 c 0,-1.006377 0.3866065,-1.8801949 0.96875,-2.5976155 z m 38.09375,0.031296 c 0.546073,0.7076808 0.9375,1.5559356 0.9375,2.5350224 l 0,28.4798808 c 0,0.999031 -0.425535,1.851417 -1,2.566319 L 26.25,24.09389 43.03125,7.2563338 z M 24.6875,10.104322 c -0.335982,3e-6 -0.58035,0.125983 -0.75,0.344262 -0.166329,0.214978 -0.250003,0.536939 -0.25,0.970194 -3e-6,0.43326 0.08367,0.751913 0.25,0.970194 0.16965,0.214976 0.414018,0.312966 0.75,0.312965 0.339302,1e-6 0.614919,-0.09798 0.78125,-0.312965 0.169647,-0.218281 0.249995,-0.536934 0.25,-0.970194 -5e-6,-0.433255 -0.08035,-0.755216 -0.25,-0.970194 -0.166331,-0.218279 -0.441948,-0.344258 -0.78125,-0.344262 z m -14.09375,10.0462 c -0.405839,8e-6 -0.8275338,0.04912 -1.25,0.125186 -0.4224706,0.07277 -0.8488027,0.170759 -1.28125,0.312966 l 0,1.627421 c 0.405835,-0.25135 0.80031,-0.437654 1.15625,-0.563338 0.355936,-0.128979 0.6693602,-0.187772 0.96875,-0.187779 0.3892,6e-6 0.704639,0.101303 0.9375,0.312965 0.236179,0.211674 0.343746,0.497746 0.34375,0.845008 -4e-6,0.224901 -0.03983,0.448872 -0.15625,0.657228 -0.116432,0.208365 -0.288417,0.407653 -0.53125,0.625931 l -2.71875,2.409836 0,1.37705 5.40625,0 0,-1.37705 -3.28125,0 1.59375,-1.408345 c 0.671953,-0.585391 1.102924,-1.061075 1.3125,-1.408346 0.209565,-0.350571 0.312494,-0.723179 0.3125,-1.126677 -6e-6,-0.697836 -0.254353,-1.237152 -0.75,-1.627422 -0.492331,-0.390254 -1.170995,-0.594626 -2.0625,-0.594634 z m 23.875,0.281669 0,4.162444 c 0.359263,-0.148826 0.687304,-0.243508 1,-0.312966 0.312691,-0.07276 0.630147,-0.09389 0.90625,-0.09389 0.46571,4e-6 0.827624,0.08807 1.09375,0.312966 0.269444,0.2249 0.406247,0.548638 0.40625,0.938897 -4e-6,0.386957 -0.136806,0.679398 -0.40625,0.907601 -0.266126,0.224899 -0.628038,0.344263 -1.09375,0.344262 -0.322676,1e-6 -0.665336,-0.04073 -1.03125,-0.156483 -0.362593,-0.115754 -0.750417,-0.300529 -1.15625,-0.532041 l 0,1.502235 c 0.409161,0.165366 0.80626,0.296185 1.21875,0.375559 0.415813,0.08268 0.827529,0.125186 1.25,0.125186 0.977994,0 1.763618,-0.235423 2.3125,-0.688524 0.552197,-0.453101 0.812494,-1.077425 0.8125,-1.877795 -6e-6,-0.80698 -0.244376,-1.427997 -0.75,-1.877794 -0.505637,-0.453096 -1.216862,-0.68852 -2.125,-0.688525 -0.159677,5e-6 -0.319059,0.0081 -0.46875,0.0313 -0.14637,0.01985 -0.291134,0.05421 -0.4375,0.09389 l 0,-1.157973 3.25,0 0,-1.408346 -4.78125,0 z m -10.5625,4.600596 c -0.09714,0.02582 -0.184262,0.08035 -0.25,0.156483 L 6.125,42.746647 C 5.9334616,42.931336 5.9197318,43.233842 6.09375,43.435171 7.0337459,44.402037 8.3538992,45 9.8125,45 l 28.46875,0 c 1.430959,-10e-7 2.718354,-0.562941 3.65625,-1.502235 0.182519,-0.193113 0.182519,-0.495413 0,-0.688525 L 24.34375,25.18927 c -0.111321,-0.120956 -0.274855,-0.179448 -0.4375,-0.156483 z m -2.59375,9.201192 5.59375,0 0,1.064084 L 24,41.61997 l -1.875,0 2.75,-6.008942 -3.5625,0 0,-1.377049 z" id="path-main"/>
    </g>
  </defs>
  <g id="acyl-visual">
    <use id="visible1" transform="translate(24,24) scale(1.00) translate(-24,-24)" style="fill:url(#acyl-gradient)" xlink:href="#acyl-drawing"/>
  </g>
</svg>
