<svg xmlns="http://www.w3.org/2000/svg" xmlns:xlink="http://www.w3.org/1999/xlink" width="48" height="48">
  <defs id="acyl-settings">
    <linearGradient x1="0%" y1="0%" x2="0%" y2="100%" id="acyl-gradient">
      <stop offset="0%" style="stop-color:#8FA1B3;stop-opacity:1.000000"/>
    </linearGradient>
    <g id="acyl-filter">
  </g>
    <g id="acyl-drawing">
      <path d="M 40.40625 1.78125 C 39.467294 1.78125 38.67887 2.5260643 38.59375 3.4375 L 38.59375 3.5625 L 38.4375 3.59375 L 9.875 9.59375 L 9.78125 9.625 L 9.6875 9.53125 C 9.5139957 9.347632 9.3099735 9.25 9.03125 9.25 C 8.5004788 9.25 8.0625 9.6637935 8.0625 10.1875 L 8.0625 12.5 C 8.0625 12.511294 8.0892721 12.515342 8.09375 12.53125 C 8.09823 12.54716 8.08579 12.57742 8.09375 12.625 L 8.125 12.8125 L 7.96875 12.84375 C 7.6406712 12.937289 7.3681701 13.077718 7.1875 13.21875 C 7.0068299 13.359782 6.90625 13.489645 6.90625 13.625 C 6.90625 13.830232 7.1156932 14.057847 7.5 14.25 C 7.8843068 14.442153 8.4271067 14.59375 9.03125 14.59375 C 9.6353935 14.59375 10.186612 14.441505 10.5625 14.25 C 10.938388 14.058495 11.125 13.83353 11.125 13.625 C 11.125 13.489645 11.02442 13.359782 10.84375 13.21875 C 10.66308 13.077718 10.390579 12.93729 10.0625 12.84375 L 9.90625 12.8125 L 9.9375 12.625 C 9.94547 12.57746 9.93303 12.54714 9.9375 12.53125 C 9.941972 12.51536 9.96875 12.51132 9.96875 12.5 L 9.90625 10.90625 L 9.875 10.75 L 10.0625 10.71875 L 38.84375 4.6875 L 38.9375 4.65625 L 39.03125 4.75 C 39.362251 5.1452707 39.849858 5.40625 40.40625 5.40625 C 41.402395 5.40625 42.21875 4.5871735 42.21875 3.59375 C 42.21875 2.6003265 41.402395 1.78125 40.40625 1.78125 z M 36.40625 10.9375 C 36.266984 10.937598 36.166154 11.002037 36.0625 11.09375 C 35.958846 11.18547 35.873126 11.297693 35.78125 11.4375 C 35.752447 11.481329 35.715873 11.54623 35.6875 11.59375 L 10.3125 11.59375 L 10.34375 12.5 C 10.34375 12.51347 10.34485 12.51859 10.34375 12.53125 C 10.632933 12.628387 10.893552 12.749974 11.09375 12.90625 C 11.334034 13.093817 11.5 13.334317 11.5 13.625 C 11.5 14.048282 11.198831 14.396333 10.75 14.625 C 10.301169 14.853667 9.6907305 14.96875 9.03125 14.96875 C 8.3717697 14.96875 7.7685373 14.853019 7.3125 14.625 C 6.8564627 14.396981 6.53125 14.05158 6.53125 13.625 C 6.53125 13.334317 6.6972155 13.093817 6.9375 12.90625 C 7.1376985 12.749974 7.3983171 12.62839 7.6875 12.53125 C 7.68637 12.51858 7.6875 12.51348 7.6875 12.5 L 7.6875 11.59375 L 6.84375 11.59375 C 6.4026484 11.59375 3.40625 14.581104 3.40625 15.03125 L 3.40625 42.15625 C 3.40625 43.504309 4.4956912 44.59375 5.84375 44.59375 L 40.9375 44.59375 C 42.285559 44.59375 43.375 43.504309 43.375 42.15625 L 43.375 30.625 L 45.6875 30.59375 C 46.090088 30.59375 46.40625 30.277588 46.40625 29.875 L 46.40625 20.3125 C 46.40625 19.909912 46.090088 19.59375 45.6875 19.59375 L 43.375 19.625 L 43.375 15.09375 C 43.375 14.528397 40.405429 11.59375 39.9375 11.59375 L 37.15625 11.59375 C 37.126889 11.545048 37.09209 11.482392 37.0625 11.4375 C 36.97043 11.297824 36.885027 11.185318 36.78125 11.09375 C 36.677472 11.00218 36.545515 10.937401 36.40625 10.9375 z M 36.40625 11.25 C 36.43502 11.24998 36.493957 11.28327 36.5625 11.34375 C 36.63105 11.40423 36.699071 11.500323 36.78125 11.625 C 36.945608 11.874354 37.142577 12.226663 37.3125 12.59375 C 37.482423 12.960838 37.619775 13.33488 37.78125 13.65625 C 37.942724 13.977621 38.118943 14.231252 38.3125 14.375 C 38.506057 14.518748 38.776453 14.567594 39.125 14.625 C 39.473547 14.68241 39.887628 14.729811 40.28125 14.78125 C 40.674872 14.83269 41.029935 14.917439 41.3125 15 C 41.453782 15.04128 41.578813 15.077069 41.65625 15.125 C 41.73369 15.17294 41.772338 15.221998 41.78125 15.25 C 41.79015 15.278 41.78503 15.320825 41.75 15.40625 C 41.71499 15.49167 41.652933 15.600215 41.5625 15.71875 C 41.381626 15.95582 41.101034 16.25238 40.8125 16.53125 C 40.523965 16.81012 40.248672 17.087233 40 17.34375 C 39.751327 17.600268 39.542488 17.798386 39.46875 18.03125 C 39.39501 18.264114 39.41437 18.580422 39.46875 18.9375 C 39.52312 19.294578 39.613654 19.694631 39.6875 20.09375 C 39.76134 20.492869 39.833137 20.886887 39.84375 21.1875 C 39.84905 21.337805 39.833103 21.441047 39.8125 21.53125 C 39.7919 21.62145 39.77326 21.670174 39.75 21.6875 C 39.72674 21.70483 39.683936 21.72643 39.59375 21.71875 C 39.50357 21.71105 39.356822 21.67642 39.21875 21.625 C 38.942606 21.522163 38.598247 21.350986 38.25 21.15625 C 37.901753 20.961514 37.565162 20.756584 37.25 20.59375 C 36.934837 20.430917 36.67663 20.31233 36.4375 20.3125 C 36.198371 20.31267 35.908692 20.43047 35.59375 20.59375 C 35.278808 20.75703 34.941733 20.96102 34.59375 21.15625 C 34.245766 21.35148 33.901005 21.521772 33.625 21.625 C 33.486998 21.67661 33.371422 21.71094 33.28125 21.71875 C 33.19108 21.72655 33.117036 21.7048 33.09375 21.6875 C 33.07046 21.67021 33.05198 21.621425 33.03125 21.53125 C 33.01052 21.44107 32.99489 21.337813 33 21.1875 C 33.01021 20.886873 33.082945 20.492974 33.15625 20.09375 C 33.22956 19.694527 33.32111 19.294655 33.375 18.9375 C 33.42889 18.580345 33.44903 18.264009 33.375 18.03125 C 33.30095 17.798491 33.124019 17.599915 32.875 17.34375 C 32.625982 17.087585 32.320161 16.778461 32.03125 16.5 C 31.742339 16.221539 31.462444 15.955564 31.28125 15.71875 C 31.19065 15.600343 31.128874 15.491625 31.09375 15.40625 C 31.05863 15.32088 31.05363 15.278014 31.0625 15.25 C 31.0714 15.22199 31.110126 15.173041 31.1875 15.125 C 31.26487 15.07695 31.358773 15.04148 31.5 15 C 31.782453 14.91704 32.168948 14.833248 32.5625 14.78125 C 32.956053 14.72925 33.370281 14.682902 33.71875 14.625 C 34.067219 14.5671 34.337888 14.519023 34.53125 14.375 C 34.724612 14.230978 34.87021 13.977849 35.03125 13.65625 C 35.19229 13.334651 35.361824 12.961078 35.53125 12.59375 C 35.700676 12.226422 35.898479 11.874587 36.0625 11.625 C 36.14451 11.500207 36.181537 11.404328 36.25 11.34375 C 36.31846 11.28317 36.377483 11.25002 36.40625 11.25 z M 6.59375 16.96875 L 31.96875 16.96875 C 32.019553 17.016523 32.07503 17.046961 32.125 17.09375 L 6.75 17.125 C 6.2041071 17.125 5.90625 17.422857 5.90625 17.96875 L 5.90625 23.0625 C 5.90625 23.608393 6.1416071 24.09375 6.6875 24.09375 L 40.0625 24.09375 C 40.608393 24.09375 41.09375 23.639643 41.09375 23.09375 L 41.09375 18.125 C 41.09375 17.753081 40.872206 17.428014 40.5625 17.25 C 40.610184 17.203538 40.669423 17.172566 40.71875 17.125 C 41.034478 17.296206 41.25 17.613912 41.25 18 L 41.25 23.15625 C 41.25 23.72315 40.775146 24.21875 40.21875 24.21875 L 6.59375 24.21875 C 6.0373536 24.21875 5.75 23.66065 5.75 23.09375 L 5.75 17.9375 C 5.75 17.3706 6.0373536 16.96875 6.59375 16.96875 z M 6.59375 18 L 8.625 18 L 8.625 23.1875 L 6.59375 23.1875 C 6.58438 23.1875 6.59375 23.16579 6.59375 23.15625 L 6.59375 18 z M 9.65625 18 L 11.6875 18 L 11.6875 23.1875 L 9.65625 23.1875 L 9.65625 18 z M 12.71875 18 L 14.75 18 L 14.75 23.1875 L 12.71875 23.1875 L 12.71875 18 z M 15.75 18 L 17.8125 18 L 17.8125 23.1875 L 15.75 23.1875 L 15.75 18 z M 18.8125 18 L 20.84375 18 L 20.84375 23.1875 L 18.8125 23.1875 L 18.8125 18 z M 21.875 18 L 23.90625 18 L 23.90625 23.1875 L 21.875 23.1875 L 21.875 18 z M 24.9375 18 L 26.96875 18 L 26.96875 22.15625 L 28 22.15625 L 28 23.1875 L 24.9375 23.1875 L 24.9375 18 z M 29 18 L 30.03125 18 L 30.03125 23.1875 L 29 23.1875 L 29 22.15625 L 29 18 z M 31.0625 18 L 33 18 C 33.035629 18.052389 33.084474 18.127095 33.09375 18.15625 C 33.10876 18.20343 33.101543 18.280104 33.09375 18.40625 C 33.085957 18.532396 33.05711 18.703593 33.03125 18.875 C 32.97952 19.217813 32.917966 19.62707 32.84375 20.03125 C 32.76953 20.43543 32.698935 20.819456 32.6875 21.15625 C 32.6818 21.324647 32.6874 21.488476 32.71875 21.625 C 32.75013 21.761525 32.793528 21.885033 32.90625 21.96875 C 32.962612 22.01061 33.026613 22.049966 33.09375 22.0625 L 33.09375 23.1875 L 31.0625 23.1875 L 31.0625 18 z M 39.84375 18 L 40.21875 18 L 40.21875 23.15625 C 40.21875 23.16585 40.22815 23.1875 40.21875 23.1875 L 37.15625 23.1875 L 37.15625 20.90625 C 37.447157 21.060645 37.762309 21.283411 38.09375 21.46875 C 38.446321 21.665904 38.815634 21.822291 39.125 21.9375 C 39.279683 21.9951 39.394714 22.050864 39.53125 22.0625 C 39.667786 22.07414 39.824889 22.05263 39.9375 21.96875 C 40.050111 21.88487 40.125054 21.761569 40.15625 21.625 C 40.18745 21.48843 40.1622 21.324639 40.15625 21.15625 C 40.14436 20.819472 40.074761 20.435324 40 20.03125 C 39.92524 19.627176 39.83344 19.21774 39.78125 18.875 C 39.72906 18.53226 39.75136 18.219398 39.78125 18.125 C 39.789527 18.098858 39.814476 18.043422 39.84375 18 z M 36.15625 20.6875 L 36.15625 23.1875 L 34.09375 23.1875 L 34.09375 21.78125 C 34.305864 21.676694 34.527525 21.562315 34.75 21.4375 C 35.102304 21.239847 35.478954 21.031724 35.78125 20.875 C 35.922813 20.801607 36.046401 20.731928 36.15625 20.6875 z M 7.25 25.59375 L 39.5625 25.59375 C 40.035236 25.59375 40.40625 25.964764 40.40625 26.4375 L 40.40625 40.75 C 40.40625 41.222736 40.035236 41.59375 39.5625 41.59375 L 7.25 41.59375 C 6.7772644 41.59375 6.40625 41.222736 6.40625 40.75 L 6.40625 26.4375 C 6.40625 25.964764 6.7772644 25.59375 7.25 25.59375 z M 8.3125 26.3125 A 0.250025 0.250025 0 0 0 8.28125 26.34375 A 0.250025 0.250025 0 0 0 8.21875 26.40625 A 0.250025 0.250025 0 0 0 8.1875 26.46875 A 0.250025 0.250025 0 0 0 8.15625 26.5625 L 8.15625 27.375 L 7.46875 27.375 A 0.250025 0.250025 0 0 0 7.4375 27.375 A 0.250025 0.250025 0 0 0 7.375 27.375 A 0.250025 0.250025 0 0 0 7.34375 27.40625 A 0.250025 0.250025 0 0 0 7.25 27.5 A 0.250025 0.250025 0 0 0 7.21875 27.5625 A 0.250025 0.250025 0 0 0 7.21875 27.625 A 0.250025 0.250025 0 0 0 7.21875 27.6875 A 0.250025 0.250025 0 0 0 7.28125 27.78125 A 0.250025 0.250025 0 0 0 7.3125 27.8125 A 0.250025 0.250025 0 0 0 7.375 27.84375 A 0.250025 0.250025 0 0 0 7.46875 27.875 L 8.15625 27.875 L 8.15625 29.375 L 7.40625 29.375 A 0.250025 0.250025 0 0 0 7.34375 29.375 A 0.250025 0.250025 0 0 0 7.3125 29.375 A 0.250025 0.250025 0 0 0 7.28125 29.375 A 0.250025 0.250025 0 0 0 7.21875 29.4375 A 0.250025 0.250025 0 0 0 7.1875 29.5 A 0.250025 0.250025 0 0 0 7.15625 29.5625 A 0.250025 0.250025 0 0 0 7.15625 29.625 A 0.250025 0.250025 0 0 0 7.15625 29.6875 A 0.250025 0.250025 0 0 0 7.1875 29.75 A 0.250025 0.250025 0 0 0 7.28125 29.84375 A 0.250025 0.250025 0 0 0 7.375 29.875 A 0.250025 0.250025 0 0 0 7.40625 29.875 L 8.15625 29.875 L 8.15625 31.3125 L 7.40625 31.3125 A 0.250025 0.250025 0 0 0 7.34375 31.3125 A 0.250025 0.250025 0 0 0 7.3125 31.3125 A 0.250025 0.250025 0 0 0 7.25 31.375 A 0.250025 0.250025 0 0 0 7.21875 31.40625 A 0.250025 0.250025 0 0 0 7.1875 31.4375 A 0.250025 0.250025 0 0 0 7.15625 31.5 A 0.250025 0.250025 0 0 0 7.15625 31.53125 A 0.250025 0.250025 0 0 0 7.15625 31.5625 A 0.250025 0.250025 0 0 0 7.15625 31.625 A 0.250025 0.250025 0 0 0 7.1875 31.71875 A 0.250025 0.250025 0 0 0 7.21875 31.75 A 0.250025 0.250025 0 0 0 7.28125 31.78125 A 0.250025 0.250025 0 0 0 7.375 31.8125 A 0.250025 0.250025 0 0 0 7.40625 31.8125 L 8.15625 31.8125 L 8.15625 33.3125 L 7.4375 33.3125 A 0.250025 0.250025 0 0 0 7.40625 33.3125 A 0.250025 0.250025 0 0 0 7.375 33.3125 A 0.250025 0.250025 0 0 0 7.34375 33.34375 A 0.250025 0.250025 0 0 0 7.25 33.40625 A 0.250025 0.250025 0 0 0 7.21875 33.46875 A 0.250025 0.250025 0 0 0 7.1875 33.5625 A 0.250025 0.250025 0 0 0 7.1875 33.625 A 0.250025 0.250025 0 0 0 7.21875 33.6875 A 0.250025 0.250025 0 0 0 7.3125 33.78125 A 0.250025 0.250025 0 0 0 7.375 33.8125 A 0.250025 0.250025 0 0 0 7.4375 33.8125 L 8.15625 33.8125 L 8.15625 35.375 L 7.40625 35.375 A 0.250025 0.250025 0 0 0 7.34375 35.375 A 0.250025 0.250025 0 0 0 7.3125 35.375 A 0.250025 0.250025 0 0 0 7.28125 35.375 A 0.250025 0.250025 0 0 0 7.21875 35.4375 A 0.250025 0.250025 0 0 0 7.1875 35.5 A 0.250025 0.250025 0 0 0 7.15625 35.5625 A 0.250025 0.250025 0 0 0 7.15625 35.625 A 0.250025 0.250025 0 0 0 7.15625 35.6875 A 0.250025 0.250025 0 0 0 7.1875 35.75 A 0.250025 0.250025 0 0 0 7.28125 35.84375 A 0.250025 0.250025 0 0 0 7.375 35.875 A 0.250025 0.250025 0 0 0 7.40625 35.875 L 8.15625 35.875 L 8.15625 37.3125 L 7.5 37.3125 A 0.250025 0.250025 0 0 0 7.4375 37.3125 A 0.250025 0.250025 0 0 0 7.40625 37.3125 A 0.250025 0.250025 0 0 0 7.34375 37.375 A 0.250025 0.250025 0 0 0 7.3125 37.40625 A 0.250025 0.250025 0 0 0 7.28125 37.4375 A 0.250025 0.250025 0 0 0 7.25 37.5 A 0.250025 0.250025 0 0 0 7.25 37.53125 A 0.250025 0.250025 0 0 0 7.25 37.5625 A 0.250025 0.250025 0 0 0 7.25 37.625 A 0.250025 0.250025 0 0 0 7.28125 37.71875 A 0.250025 0.250025 0 0 0 7.3125 37.75 A 0.250025 0.250025 0 0 0 7.375 37.78125 A 0.250025 0.250025 0 0 0 7.46875 37.8125 A 0.250025 0.250025 0 0 0 7.5 37.8125 L 8.15625 37.8125 L 8.15625 39.375 L 7.3125 39.375 A 0.250025 0.250025 0 0 0 7.25 39.375 A 0.250025 0.250025 0 0 0 7.21875 39.375 A 0.250025 0.250025 0 0 0 7.1875 39.375 A 0.250025 0.250025 0 0 0 7.125 39.4375 A 0.250025 0.250025 0 0 0 7.09375 39.5 A 0.250025 0.250025 0 0 0 7.0625 39.5625 A 0.250025 0.250025 0 0 0 7.0625 39.625 A 0.250025 0.250025 0 0 0 7.0625 39.6875 A 0.250025 0.250025 0 0 0 7.09375 39.75 A 0.250025 0.250025 0 0 0 7.1875 39.84375 A 0.250025 0.250025 0 0 0 7.25 39.875 A 0.250025 0.250025 0 0 0 7.3125 39.875 L 8.15625 39.875 L 8.15625 40.4375 A 0.250025 0.250025 0 0 0 8.1875 40.53125 A 0.250025 0.250025 0 0 0 8.25 40.625 A 0.250025 0.250025 0 0 0 8.3125 40.65625 A 0.250025 0.250025 0 0 0 8.40625 40.6875 A 0.250025 0.250025 0 0 0 8.46875 40.6875 A 0.250025 0.250025 0 0 0 8.53125 40.65625 A 0.250025 0.250025 0 0 0 8.625 40.5625 A 0.250025 0.250025 0 0 0 8.65625 40.5 A 0.250025 0.250025 0 0 0 8.65625 40.4375 L 8.65625 39.875 L 10.15625 39.875 L 10.15625 40.4375 A 0.250025 0.250025 0 0 0 10.1875 40.53125 A 0.250025 0.250025 0 0 0 10.21875 40.59375 A 0.250025 0.250025 0 0 0 10.25 40.625 A 0.250025 0.250025 0 0 0 10.3125 40.65625 A 0.250025 0.250025 0 0 0 10.375 40.65625 A 0.250025 0.250025 0 0 0 10.4375 40.65625 A 0.250025 0.250025 0 0 0 10.46875 40.65625 A 0.250025 0.250025 0 0 0 10.5625 40.625 A 0.250025 0.250025 0 0 0 10.59375 40.59375 A 0.250025 0.250025 0 0 0 10.625 40.5625 A 0.250025 0.250025 0 0 0 10.65625 40.5 A 0.250025 0.250025 0 0 0 10.65625 40.46875 A 0.250025 0.250025 0 0 0 10.65625 40.4375 L 10.65625 39.875 L 12.1875 39.875 L 12.1875 40.4375 A 0.250025 0.250025 0 0 0 12.1875 40.5 A 0.250025 0.250025 0 0 0 12.25 40.59375 A 0.250025 0.250025 0 0 0 12.28125 40.625 A 0.250025 0.250025 0 0 0 12.34375 40.65625 A 0.250025 0.250025 0 0 0 12.40625 40.65625 A 0.250025 0.250025 0 0 0 12.46875 40.65625 A 0.250025 0.250025 0 0 0 12.5 40.65625 A 0.250025 0.250025 0 0 0 12.59375 40.59375 A 0.250025 0.250025 0 0 0 12.625 40.5625 A 0.250025 0.250025 0 0 0 12.65625 40.5 A 0.250025 0.250025 0 0 0 12.6875 40.4375 L 12.6875 39.875 L 14.15625 39.875 L 14.15625 40.4375 A 0.250025 0.250025 0 0 0 14.1875 40.53125 A 0.250025 0.250025 0 0 0 14.25 40.625 A 0.250025 0.250025 0 0 0 14.3125 40.65625 A 0.250025 0.250025 0 0 0 14.375 40.6875 A 0.250025 0.250025 0 0 0 14.4375 40.6875 A 0.250025 0.250025 0 0 0 14.5 40.65625 A 0.250025 0.250025 0 0 0 14.5625 40.625 A 0.250025 0.250025 0 0 0 14.625 40.5625 A 0.250025 0.250025 0 0 0 14.65625 40.5 A 0.250025 0.250025 0 0 0 14.65625 40.4375 L 14.65625 39.875 L 16.15625 39.875 L 16.15625 40.4375 A 0.250025 0.250025 0 0 0 16.15625 40.5 A 0.250025 0.250025 0 0 0 16.21875 40.59375 A 0.250025 0.250025 0 0 0 16.25 40.625 A 0.250025 0.250025 0 0 0 16.3125 40.65625 A 0.250025 0.250025 0 0 0 16.375 40.65625 A 0.250025 0.250025 0 0 0 16.4375 40.65625 A 0.250025 0.250025 0 0 0 16.46875 40.65625 A 0.250025 0.250025 0 0 0 16.5625 40.625 A 0.250025 0.250025 0 0 0 16.59375 40.59375 A 0.250025 0.250025 0 0 0 16.625 40.5 A 0.250025 0.250025 0 0 0 16.65625 40.4375 L 16.65625 39.875 L 18.15625 39.875 L 18.15625 40.4375 A 0.250025 0.250025 0 0 0 18.1875 40.53125 A 0.250025 0.250025 0 0 0 18.25 40.625 A 0.250025 0.250025 0 0 0 18.3125 40.65625 A 0.250025 0.250025 0 0 0 18.4375 40.6875 A 0.250025 0.250025 0 0 0 18.53125 40.65625 A 0.250025 0.250025 0 0 0 18.625 40.5625 A 0.250025 0.250025 0 0 0 18.65625 40.5 A 0.250025 0.250025 0 0 0 18.65625 40.4375 L 18.65625 39.875 L 20.15625 39.875 L 20.15625 40.4375 A 0.250025 0.250025 0 0 0 20.1875 40.53125 A 0.250025 0.250025 0 0 0 20.21875 40.59375 A 0.250025 0.250025 0 0 0 20.25 40.625 A 0.250025 0.250025 0 0 0 20.3125 40.65625 A 0.250025 0.250025 0 0 0 20.375 40.65625 A 0.250025 0.250025 0 0 0 20.4375 40.65625 A 0.250025 0.250025 0 0 0 20.46875 40.65625 A 0.250025 0.250025 0 0 0 20.5625 40.625 A 0.250025 0.250025 0 0 0 20.59375 40.59375 A 0.250025 0.250025 0 0 0 20.625 40.5625 A 0.250025 0.250025 0 0 0 20.65625 40.5 A 0.250025 0.250025 0 0 0 20.65625 40.46875 A 0.250025 0.250025 0 0 0 20.65625 40.4375 L 20.65625 39.875 L 22.15625 39.875 L 22.15625 40.4375 A 0.250025 0.250025 0 0 0 22.15625 40.5 A 0.250025 0.250025 0 0 0 22.15625 40.53125 A 0.250025 0.250025 0 0 0 22.25 40.625 A 0.250025 0.250025 0 0 0 22.3125 40.65625 A 0.250025 0.250025 0 0 0 22.40625 40.6875 A 0.250025 0.250025 0 0 0 22.5 40.65625 A 0.250025 0.250025 0 0 0 22.59375 40.5625 A 0.250025 0.250025 0 0 0 22.625 40.5 A 0.250025 0.250025 0 0 0 22.65625 40.4375 L 22.65625 39.875 L 24.15625 39.875 L 24.15625 40.4375 A 0.250025 0.250025 0 0 0 24.1875 40.53125 A 0.250025 0.250025 0 0 0 24.25 40.625 A 0.250025 0.250025 0 0 0 24.3125 40.65625 A 0.250025 0.250025 0 0 0 24.40625 40.6875 A 0.250025 0.250025 0 0 0 24.5 40.65625 A 0.250025 0.250025 0 0 0 24.5625 40.625 A 0.250025 0.250025 0 0 0 24.625 40.5625 A 0.250025 0.250025 0 0 0 24.65625 40.5 A 0.250025 0.250025 0 0 0 24.65625 40.4375 L 24.65625 39.875 L 26.1875 39.875 L 26.1875 40.4375 A 0.250025 0.250025 0 0 0 26.1875 40.5 A 0.250025 0.250025 0 0 0 26.25 40.59375 A 0.250025 0.250025 0 0 0 26.28125 40.625 A 0.250025 0.250025 0 0 0 26.4375 40.65625 A 0.250025 0.250025 0 0 0 26.5 40.65625 A 0.250025 0.250025 0 0 0 26.625 40.59375 A 0.250025 0.250025 0 0 0 26.65625 40.5625 A 0.250025 0.250025 0 0 0 26.6875 40.5 A 0.250025 0.250025 0 0 0 26.6875 40.46875 A 0.250025 0.250025 0 0 0 26.6875 40.4375 L 26.6875 39.875 L 28.15625 39.875 L 28.15625 40.4375 A 0.250025 0.250025 0 0 0 28.1875 40.53125 A 0.250025 0.250025 0 0 0 28.25 40.625 A 0.250025 0.250025 0 0 0 28.3125 40.65625 A 0.250025 0.250025 0 0 0 28.4375 40.6875 A 0.250025 0.250025 0 0 0 28.53125 40.65625 A 0.250025 0.250025 0 0 0 28.625 40.5625 A 0.250025 0.250025 0 0 0 28.65625 40.5 A 0.250025 0.250025 0 0 0 28.65625 40.4375 L 28.65625 39.875 L 30.15625 39.875 L 30.15625 40.4375 A 0.250025 0.250025 0 0 0 30.1875 40.53125 A 0.250025 0.250025 0 0 0 30.21875 40.59375 A 0.250025 0.250025 0 0 0 30.25 40.625 A 0.250025 0.250025 0 0 0 30.28125 40.65625 A 0.250025 0.250025 0 0 0 30.375 40.6875 A 0.250025 0.250025 0 0 0 30.46875 40.65625 A 0.250025 0.250025 0 0 0 30.5625 40.625 A 0.250025 0.250025 0 0 0 30.59375 40.59375 A 0.250025 0.250025 0 0 0 30.625 40.5625 A 0.250025 0.250025 0 0 0 30.65625 40.5 A 0.250025 0.250025 0 0 0 30.65625 40.46875 A 0.250025 0.250025 0 0 0 30.65625 40.4375 L 30.65625 39.875 L 32.15625 39.875 L 32.15625 40.4375 A 0.250025 0.250025 0 0 0 32.15625 40.5 A 0.250025 0.250025 0 0 0 32.15625 40.53125 A 0.250025 0.250025 0 0 0 32.25 40.625 A 0.250025 0.250025 0 0 0 32.3125 40.65625 A 0.250025 0.250025 0 0 0 32.40625 40.6875 A 0.250025 0.250025 0 0 0 32.5 40.65625 A 0.250025 0.250025 0 0 0 32.59375 40.5625 A 0.250025 0.250025 0 0 0 32.625 40.5 A 0.250025 0.250025 0 0 0 32.65625 40.4375 L 32.65625 39.875 L 34.15625 39.875 L 34.15625 40.4375 A 0.250025 0.250025 0 0 0 34.1875 40.53125 A 0.250025 0.250025 0 0 0 34.25 40.625 A 0.250025 0.250025 0 0 0 34.3125 40.65625 A 0.250025 0.250025 0 0 0 34.40625 40.6875 A 0.250025 0.250025 0 0 0 34.5 40.65625 A 0.250025 0.250025 0 0 0 34.5625 40.625 A 0.250025 0.250025 0 0 0 34.625 40.5625 A 0.250025 0.250025 0 0 0 34.65625 40.5 A 0.250025 0.250025 0 0 0 34.65625 40.4375 L 34.65625 39.875 L 36.15625 39.875 L 36.15625 40.4375 A 0.250025 0.250025 0 0 0 36.15625 40.5 A 0.250025 0.250025 0 0 0 36.21875 40.59375 A 0.250025 0.250025 0 0 0 36.25 40.625 A 0.250025 0.250025 0 0 0 36.28125 40.65625 A 0.250025 0.250025 0 0 0 36.34375 40.6875 A 0.250025 0.250025 0 0 0 36.375 40.6875 A 0.250025 0.250025 0 0 0 36.4375 40.6875 A 0.250025 0.250025 0 0 0 36.5 40.65625 A 0.250025 0.250025 0 0 0 36.5625 40.625 A 0.250025 0.250025 0 0 0 36.59375 40.59375 A 0.250025 0.250025 0 0 0 36.625 40.5625 A 0.250025 0.250025 0 0 0 36.65625 40.5 A 0.250025 0.250025 0 0 0 36.65625 40.46875 A 0.250025 0.250025 0 0 0 36.65625 40.4375 L 36.65625 39.875 L 38.15625 39.875 L 38.15625 40.4375 A 0.250025 0.250025 0 0 0 38.1875 40.53125 A 0.250025 0.250025 0 0 0 38.21875 40.59375 A 0.250025 0.250025 0 0 0 38.25 40.625 A 0.250025 0.250025 0 0 0 38.28125 40.65625 A 0.250025 0.250025 0 0 0 38.375 40.6875 A 0.250025 0.250025 0 0 0 38.46875 40.65625 A 0.250025 0.250025 0 0 0 38.5625 40.625 A 0.250025 0.250025 0 0 0 38.59375 40.59375 A 0.250025 0.250025 0 0 0 38.625 40.5625 A 0.250025 0.250025 0 0 0 38.65625 40.5 A 0.250025 0.250025 0 0 0 38.65625 40.46875 A 0.250025 0.250025 0 0 0 38.65625 40.4375 L 38.65625 39.875 L 39.25 39.875 A 0.250025 0.250025 0 0 0 39.3125 39.875 A 0.250025 0.250025 0 0 0 39.375 39.84375 A 0.250025 0.250025 0 0 0 39.46875 39.78125 A 0.250025 0.250025 0 0 0 39.5 39.71875 A 0.250025 0.250025 0 0 0 39.53125 39.625 A 0.250025 0.250025 0 0 0 39.5 39.53125 A 0.250025 0.250025 0 0 0 39.46875 39.46875 A 0.250025 0.250025 0 0 0 39.40625 39.40625 A 0.250025 0.250025 0 0 0 39.34375 39.375 A 0.250025 0.250025 0 0 0 39.28125 39.375 A 0.250025 0.250025 0 0 0 39.25 39.375 L 38.65625 39.375 L 38.65625 37.8125 L 39.46875 37.8125 A 0.250025 0.250025 0 0 0 39.53125 37.8125 A 0.250025 0.250025 0 0 0 39.625 37.75 A 0.250025 0.250025 0 0 0 39.65625 37.71875 A 0.250025 0.250025 0 0 0 39.6875 37.65625 A 0.250025 0.250025 0 0 0 39.6875 37.59375 A 0.250025 0.250025 0 0 0 39.6875 37.53125 A 0.250025 0.250025 0 0 0 39.6875 37.5 A 0.250025 0.250025 0 0 0 39.65625 37.40625 A 0.250025 0.250025 0 0 0 39.625 37.375 A 0.250025 0.250025 0 0 0 39.53125 37.34375 A 0.250025 0.250025 0 0 0 39.46875 37.3125 L 38.65625 37.3125 L 38.65625 35.875 L 39.34375 35.875 A 0.250025 0.250025 0 0 0 39.40625 35.875 A 0.250025 0.250025 0 0 0 39.46875 35.84375 A 0.250025 0.250025 0 0 0 39.5625 35.78125 A 0.250025 0.250025 0 0 0 39.59375 35.71875 A 0.250025 0.250025 0 0 0 39.625 35.625 A 0.250025 0.250025 0 0 0 39.59375 35.53125 A 0.250025 0.250025 0 0 0 39.5625 35.46875 A 0.250025 0.250025 0 0 0 39.5 35.40625 A 0.250025 0.250025 0 0 0 39.4375 35.375 A 0.250025 0.250025 0 0 0 39.375 35.375 A 0.250025 0.250025 0 0 0 39.34375 35.375 L 38.65625 35.375 L 38.65625 33.8125 L 39.40625 33.8125 A 0.250025 0.250025 0 0 0 39.46875 33.8125 A 0.250025 0.250025 0 0 0 39.59375 33.75 A 0.250025 0.250025 0 0 0 39.625 33.71875 A 0.250025 0.250025 0 0 0 39.65625 33.65625 A 0.250025 0.250025 0 0 0 39.65625 33.59375 A 0.250025 0.250025 0 0 0 39.65625 33.53125 A 0.250025 0.250025 0 0 0 39.625 33.4375 A 0.250025 0.250025 0 0 0 39.53125 33.34375 A 0.250025 0.250025 0 0 0 39.4375 33.3125 A 0.250025 0.250025 0 0 0 39.40625 33.3125 L 38.65625 33.3125 L 38.65625 31.8125 L 39.34375 31.8125 A 0.250025 0.250025 0 0 0 39.40625 31.8125 A 0.250025 0.250025 0 0 0 39.5 31.78125 A 0.250025 0.250025 0 0 0 39.53125 31.75 A 0.250025 0.250025 0 0 0 39.5625 31.71875 A 0.250025 0.250025 0 0 0 39.59375 31.65625 A 0.250025 0.250025 0 0 0 39.59375 31.59375 A 0.250025 0.250025 0 0 0 39.59375 31.53125 A 0.250025 0.250025 0 0 0 39.59375 31.5 A 0.250025 0.250025 0 0 0 39.53125 31.40625 A 0.250025 0.250025 0 0 0 39.5 31.375 A 0.250025 0.250025 0 0 0 39.4375 31.34375 A 0.250025 0.250025 0 0 0 39.34375 31.3125 L 38.65625 31.3125 L 38.65625 29.875 L 39.34375 29.875 A 0.250025 0.250025 0 0 0 39.40625 29.875 A 0.250025 0.250025 0 0 0 39.46875 29.84375 A 0.250025 0.250025 0 0 0 39.5625 29.78125 A 0.250025 0.250025 0 0 0 39.59375 29.71875 A 0.250025 0.250025 0 0 0 39.625 29.625 A 0.250025 0.250025 0 0 0 39.59375 29.53125 A 0.250025 0.250025 0 0 0 39.5625 29.46875 A 0.250025 0.250025 0 0 0 39.5 29.40625 A 0.250025 0.250025 0 0 0 39.4375 29.375 A 0.250025 0.250025 0 0 0 39.375 29.375 A 0.250025 0.250025 0 0 0 39.34375 29.375 L 38.65625 29.375 L 38.65625 27.875 L 39.4375 27.875 A 0.250025 0.250025 0 0 0 39.46875 27.875 A 0.250025 0.250025 0 0 0 39.59375 27.8125 A 0.250025 0.250025 0 0 0 39.625 27.78125 A 0.250025 0.250025 0 0 0 39.65625 27.75 A 0.250025 0.250025 0 0 0 39.6875 27.625 A 0.250025 0.250025 0 0 0 39.6875 27.5625 A 0.250025 0.250025 0 0 0 39.625 27.46875 A 0.250025 0.250025 0 0 0 39.59375 27.4375 A 0.250025 0.250025 0 0 0 39.5625 27.40625 A 0.250025 0.250025 0 0 0 39.46875 27.375 A 0.250025 0.250025 0 0 0 39.4375 27.375 L 38.65625 27.375 L 38.65625 26.5625 A 0.250025 0.250025 0 0 0 38.65625 26.5 A 0.250025 0.250025 0 0 0 38.625 26.40625 A 0.250025 0.250025 0 0 0 38.59375 26.375 A 0.250025 0.250025 0 0 0 38.5625 26.34375 A 0.250025 0.250025 0 0 0 38.5 26.3125 A 0.250025 0.250025 0 0 0 38.46875 26.3125 A 0.250025 0.250025 0 0 0 38.4375 26.3125 A 0.250025 0.250025 0 0 0 38.375 26.3125 A 0.250025 0.250025 0 0 0 38.3125 26.3125 A 0.250025 0.250025 0 0 0 38.28125 26.3125 A 0.250025 0.250025 0 0 0 38.25 26.34375 A 0.250025 0.250025 0 0 0 38.21875 26.375 A 0.250025 0.250025 0 0 0 38.1875 26.40625 A 0.250025 0.250025 0 0 0 38.15625 26.5 A 0.250025 0.250025 0 0 0 38.15625 26.5625 L 38.15625 27.375 L 36.65625 27.375 L 36.65625 26.5625 A 0.250025 0.250025 0 0 0 36.625 26.46875 A 0.250025 0.250025 0 0 0 36.5625 26.375 A 0.250025 0.250025 0 0 0 36.5 26.34375 A 0.250025 0.250025 0 0 0 36.40625 26.3125 A 0.250025 0.250025 0 0 0 36.34375 26.3125 A 0.250025 0.250025 0 0 0 36.3125 26.3125 A 0.250025 0.250025 0 0 0 36.28125 26.3125 A 0.250025 0.250025 0 0 0 36.25 26.34375 A 0.250025 0.250025 0 0 0 36.1875 26.40625 A 0.250025 0.250025 0 0 0 36.15625 26.5 A 0.250025 0.250025 0 0 0 36.15625 26.5625 L 36.15625 27.375 L 34.65625 27.375 L 34.65625 26.5625 A 0.250025 0.250025 0 0 0 34.65625 26.5 A 0.250025 0.250025 0 0 0 34.65625 26.46875 A 0.250025 0.250025 0 0 0 34.59375 26.375 A 0.250025 0.250025 0 0 0 34.5625 26.34375 A 0.250025 0.250025 0 0 0 34.46875 26.3125 A 0.250025 0.250025 0 0 0 34.40625 26.3125 A 0.250025 0.250025 0 0 0 34.34375 26.3125 A 0.250025 0.250025 0 0 0 34.3125 26.3125 A 0.250025 0.250025 0 0 0 34.28125 26.34375 A 0.250025 0.250025 0 0 0 34.1875 26.4375 A 0.250025 0.250025 0 0 0 34.15625 26.5 A 0.250025 0.250025 0 0 0 34.15625 26.5625 L 34.15625 27.375 L 32.65625 27.375 L 32.65625 26.5625 A 0.250025 0.250025 0 0 0 32.625 26.46875 A 0.250025 0.250025 0 0 0 32.5625 26.375 A 0.250025 0.250025 0 0 0 32.53125 26.34375 A 0.250025 0.250025 0 0 0 32.5 26.3125 A 0.250025 0.250025 0 0 0 32.4375 26.3125 A 0.250025 0.250025 0 0 0 32.375 26.3125 A 0.250025 0.250025 0 0 0 32.3125 26.3125 A 0.250025 0.250025 0 0 0 32.28125 26.3125 A 0.250025 0.250025 0 0 0 32.25 26.3125 A 0.250025 0.250025 0 0 0 32.21875 26.34375 A 0.250025 0.250025 0 0 0 32.1875 26.40625 A 0.250025 0.250025 0 0 0 32.15625 26.5 A 0.250025 0.250025 0 0 0 32.15625 26.5625 L 32.15625 27.375 L 30.65625 27.375 L 30.65625 26.5625 A 0.250025 0.250025 0 0 0 30.65625 26.5 A 0.250025 0.250025 0 0 0 30.625 26.40625 A 0.250025 0.250025 0 0 0 30.59375 26.375 A 0.250025 0.250025 0 0 0 30.5625 26.34375 A 0.250025 0.250025 0 0 0 30.5 26.3125 A 0.250025 0.250025 0 0 0 30.46875 26.3125 A 0.250025 0.250025 0 0 0 30.4375 26.3125 A 0.250025 0.250025 0 0 0 30.375 26.3125 A 0.250025 0.250025 0 0 0 30.3125 26.3125 A 0.250025 0.250025 0 0 0 30.28125 26.3125 A 0.250025 0.250025 0 0 0 30.25 26.34375 A 0.250025 0.250025 0 0 0 30.21875 26.375 A 0.250025 0.250025 0 0 0 30.1875 26.40625 A 0.250025 0.250025 0 0 0 30.15625 26.5 A 0.250025 0.250025 0 0 0 30.15625 26.5625 L 30.15625 27.375 L 28.65625 27.375 L 28.65625 26.5625 A 0.250025 0.250025 0 0 0 28.65625 26.5 A 0.250025 0.250025 0 0 0 28.65625 26.46875 A 0.250025 0.250025 0 0 0 28.59375 26.375 A 0.250025 0.250025 0 0 0 28.5625 26.34375 A 0.250025 0.250025 0 0 0 28.5 26.3125 A 0.250025 0.250025 0 0 0 28.4375 26.3125 A 0.250025 0.250025 0 0 0 28.375 26.3125 A 0.250025 0.250025 0 0 0 28.3125 26.3125 A 0.250025 0.250025 0 0 0 28.28125 26.34375 A 0.250025 0.250025 0 0 0 28.21875 26.40625 A 0.250025 0.250025 0 0 0 28.1875 26.5 A 0.250025 0.250025 0 0 0 28.15625 26.5625 L 28.15625 27.375 L 26.6875 27.375 L 26.6875 26.5625 A 0.250025 0.250025 0 0 0 26.6875 26.5 A 0.250025 0.250025 0 0 0 26.625 26.40625 A 0.250025 0.250025 0 0 0 26.59375 26.375 A 0.250025 0.250025 0 0 0 26.5625 26.34375 A 0.250025 0.250025 0 0 0 26.46875 26.3125 A 0.250025 0.250025 0 0 0 26.40625 26.3125 A 0.250025 0.250025 0 0 0 26.34375 26.3125 A 0.250025 0.250025 0 0 0 26.3125 26.3125 A 0.250025 0.250025 0 0 0 26.28125 26.34375 A 0.250025 0.250025 0 0 0 26.21875 26.40625 A 0.250025 0.250025 0 0 0 26.1875 26.5 A 0.250025 0.250025 0 0 0 26.1875 26.5625 L 26.1875 27.375 L 24.65625 27.375 L 24.65625 26.5625 A 0.250025 0.250025 0 0 0 24.65625 26.5 A 0.250025 0.250025 0 0 0 24.65625 26.46875 A 0.250025 0.250025 0 0 0 24.59375 26.375 A 0.250025 0.250025 0 0 0 24.5625 26.34375 A 0.250025 0.250025 0 0 0 24.46875 26.3125 A 0.250025 0.250025 0 0 0 24.40625 26.3125 A 0.250025 0.250025 0 0 0 24.34375 26.3125 A 0.250025 0.250025 0 0 0 24.3125 26.3125 A 0.250025 0.250025 0 0 0 24.28125 26.34375 A 0.250025 0.250025 0 0 0 24.1875 26.4375 A 0.250025 0.250025 0 0 0 24.15625 26.5 A 0.250025 0.250025 0 0 0 24.15625 26.5625 L 24.15625 27.375 L 22.65625 27.375 L 22.65625 26.5625 A 0.250025 0.250025 0 0 0 22.625 26.46875 A 0.250025 0.250025 0 0 0 22.5625 26.375 A 0.250025 0.250025 0 0 0 22.53125 26.34375 A 0.250025 0.250025 0 0 0 22.5 26.3125 A 0.250025 0.250025 0 0 0 22.4375 26.3125 A 0.250025 0.250025 0 0 0 22.375 26.3125 A 0.250025 0.250025 0 0 0 22.3125 26.3125 A 0.250025 0.250025 0 0 0 22.28125 26.3125 A 0.250025 0.250025 0 0 0 22.25 26.3125 A 0.250025 0.250025 0 0 0 22.21875 26.34375 A 0.250025 0.250025 0 0 0 22.1875 26.40625 A 0.250025 0.250025 0 0 0 22.15625 26.5 A 0.250025 0.250025 0 0 0 22.15625 26.5625 L 22.15625 27.375 L 20.65625 27.375 L 20.65625 26.5625 A 0.250025 0.250025 0 0 0 20.65625 26.5 A 0.250025 0.250025 0 0 0 20.625 26.40625 A 0.250025 0.250025 0 0 0 20.59375 26.375 A 0.250025 0.250025 0 0 0 20.5625 26.34375 A 0.250025 0.250025 0 0 0 20.5 26.3125 A 0.250025 0.250025 0 0 0 20.46875 26.3125 A 0.250025 0.250025 0 0 0 20.4375 26.3125 A 0.250025 0.250025 0 0 0 20.375 26.3125 A 0.250025 0.250025 0 0 0 20.3125 26.3125 A 0.250025 0.250025 0 0 0 20.28125 26.3125 A 0.250025 0.250025 0 0 0 20.25 26.34375 A 0.250025 0.250025 0 0 0 20.21875 26.375 A 0.250025 0.250025 0 0 0 20.1875 26.40625 A 0.250025 0.250025 0 0 0 20.15625 26.5 A 0.250025 0.250025 0 0 0 20.15625 26.5625 L 20.15625 27.375 L 18.65625 27.375 L 18.65625 26.5625 A 0.250025 0.250025 0 0 0 18.65625 26.5 A 0.250025 0.250025 0 0 0 18.65625 26.46875 A 0.250025 0.250025 0 0 0 18.59375 26.375 A 0.250025 0.250025 0 0 0 18.5625 26.34375 A 0.250025 0.250025 0 0 0 18.5 26.3125 A 0.250025 0.250025 0 0 0 18.4375 26.3125 A 0.250025 0.250025 0 0 0 18.375 26.3125 A 0.250025 0.250025 0 0 0 18.3125 26.3125 A 0.250025 0.250025 0 0 0 18.28125 26.34375 A 0.250025 0.250025 0 0 0 18.21875 26.40625 A 0.250025 0.250025 0 0 0 18.1875 26.4375 A 0.250025 0.250025 0 0 0 18.15625 26.5 A 0.250025 0.250025 0 0 0 18.15625 26.53125 A 0.250025 0.250025 0 0 0 18.15625 26.5625 L 18.15625 27.375 L 16.65625 27.375 L 16.65625 26.5625 A 0.250025 0.250025 0 0 0 16.625 26.46875 A 0.250025 0.250025 0 0 0 16.5625 26.375 A 0.250025 0.250025 0 0 0 16.53125 26.34375 A 0.250025 0.250025 0 0 0 16.5 26.3125 A 0.250025 0.250025 0 0 0 16.4375 26.3125 A 0.250025 0.250025 0 0 0 16.40625 26.3125 A 0.250025 0.250025 0 0 0 16.34375 26.3125 A 0.250025 0.250025 0 0 0 16.3125 26.3125 A 0.250025 0.250025 0 0 0 16.28125 26.3125 A 0.250025 0.250025 0 0 0 16.21875 26.375 A 0.250025 0.250025 0 0 0 16.1875 26.40625 A 0.250025 0.250025 0 0 0 16.15625 26.5 A 0.250025 0.250025 0 0 0 16.15625 26.5625 L 16.15625 27.375 L 14.65625 27.375 L 14.65625 26.5625 A 0.250025 0.250025 0 0 0 14.65625 26.5 A 0.250025 0.250025 0 0 0 14.65625 26.46875 A 0.250025 0.250025 0 0 0 14.59375 26.375 A 0.250025 0.250025 0 0 0 14.5625 26.34375 A 0.250025 0.250025 0 0 0 14.46875 26.3125 A 0.250025 0.250025 0 0 0 14.40625 26.3125 A 0.250025 0.250025 0 0 0 14.34375 26.3125 A 0.250025 0.250025 0 0 0 14.3125 26.3125 A 0.250025 0.250025 0 0 0 14.28125 26.34375 A 0.250025 0.250025 0 0 0 14.1875 26.4375 A 0.250025 0.250025 0 0 0 14.15625 26.5 A 0.250025 0.250025 0 0 0 14.15625 26.5625 L 14.15625 27.375 L 12.6875 27.375 L 12.6875 26.5625 A 0.250025 0.250025 0 0 0 12.65625 26.46875 A 0.250025 0.250025 0 0 0 12.59375 26.375 A 0.250025 0.250025 0 0 0 12.5625 26.34375 A 0.250025 0.250025 0 0 0 12.53125 26.3125 A 0.250025 0.250025 0 0 0 12.46875 26.3125 A 0.250025 0.250025 0 0 0 12.40625 26.3125 A 0.250025 0.250025 0 0 0 12.34375 26.3125 A 0.250025 0.250025 0 0 0 12.3125 26.3125 A 0.250025 0.250025 0 0 0 12.28125 26.3125 A 0.250025 0.250025 0 0 0 12.25 26.34375 A 0.250025 0.250025 0 0 0 12.21875 26.40625 A 0.250025 0.250025 0 0 0 12.1875 26.5 A 0.250025 0.250025 0 0 0 12.1875 26.5625 L 12.1875 27.375 L 10.65625 27.375 L 10.65625 26.5625 A 0.250025 0.250025 0 0 0 10.65625 26.5 A 0.250025 0.250025 0 0 0 10.625 26.40625 A 0.250025 0.250025 0 0 0 10.59375 26.375 A 0.250025 0.250025 0 0 0 10.5625 26.34375 A 0.250025 0.250025 0 0 0 10.5 26.3125 A 0.250025 0.250025 0 0 0 10.46875 26.3125 A 0.250025 0.250025 0 0 0 10.4375 26.3125 A 0.250025 0.250025 0 0 0 10.375 26.3125 A 0.250025 0.250025 0 0 0 10.3125 26.3125 A 0.250025 0.250025 0 0 0 10.28125 26.3125 A 0.250025 0.250025 0 0 0 10.25 26.34375 A 0.250025 0.250025 0 0 0 10.1875 26.40625 A 0.250025 0.250025 0 0 0 10.15625 26.46875 A 0.250025 0.250025 0 0 0 10.15625 26.53125 A 0.250025 0.250025 0 0 0 10.15625 26.5625 L 10.15625 27.375 L 8.65625 27.375 L 8.65625 26.5625 A 0.250025 0.250025 0 0 0 8.65625 26.5 A 0.250025 0.250025 0 0 0 8.65625 26.46875 A 0.250025 0.250025 0 0 0 8.59375 26.375 A 0.250025 0.250025 0 0 0 8.5625 26.34375 A 0.250025 0.250025 0 0 0 8.5 26.3125 A 0.250025 0.250025 0 0 0 8.4375 26.3125 A 0.250025 0.250025 0 0 0 8.375 26.3125 A 0.250025 0.250025 0 0 0 8.3125 26.3125 z M 8.65625 27.875 L 10.15625 27.875 L 10.15625 29.375 L 8.65625 29.375 L 8.65625 27.875 z M 10.65625 27.875 L 12.1875 27.875 L 12.1875 29.375 L 10.65625 29.375 L 10.65625 27.875 z M 12.6875 27.875 L 14.15625 27.875 L 14.15625 29.375 L 12.6875 29.375 L 12.6875 27.875 z M 14.65625 27.875 L 16.15625 27.875 L 16.15625 29.375 L 14.65625 29.375 L 14.65625 27.875 z M 16.65625 27.875 L 18.15625 27.875 L 18.15625 29.375 L 16.65625 29.375 L 16.65625 27.875 z M 18.65625 27.875 L 20.15625 27.875 L 20.15625 29.375 L 18.65625 29.375 L 18.65625 27.875 z M 20.65625 27.875 L 22.15625 27.875 L 22.15625 29.375 L 20.65625 29.375 L 20.65625 27.875 z M 22.65625 27.875 L 24.15625 27.875 L 24.15625 29.375 L 22.65625 29.375 L 22.65625 27.875 z M 24.65625 27.875 L 26.1875 27.875 L 26.1875 29.375 L 24.65625 29.375 L 24.65625 27.875 z M 26.6875 27.875 L 28.15625 27.875 L 28.15625 29.375 L 26.6875 29.375 L 26.6875 27.875 z M 28.65625 27.875 L 30.15625 27.875 L 30.15625 29.375 L 28.65625 29.375 L 28.65625 27.875 z M 30.65625 27.875 L 32.15625 27.875 L 32.15625 29.375 L 30.65625 29.375 L 30.65625 27.875 z M 32.65625 27.875 L 34.15625 27.875 L 34.15625 29.375 L 32.65625 29.375 L 32.65625 27.875 z M 34.65625 27.875 L 36.15625 27.875 L 36.15625 29.375 L 34.65625 29.375 L 34.65625 27.875 z M 36.65625 27.875 L 38.15625 27.875 L 38.15625 29.375 L 36.65625 29.375 L 36.65625 27.875 z M 8.65625 29.875 L 10.15625 29.875 L 10.15625 31.3125 L 8.65625 31.3125 L 8.65625 29.875 z M 10.65625 29.875 L 12.1875 29.875 L 12.1875 31.3125 L 10.65625 31.3125 L 10.65625 29.875 z M 12.6875 29.875 L 14.15625 29.875 L 14.15625 31.3125 L 12.6875 31.3125 L 12.6875 29.875 z M 14.65625 29.875 L 16.15625 29.875 L 16.15625 31.3125 L 14.65625 31.3125 L 14.65625 29.875 z M 16.65625 29.875 L 18.15625 29.875 L 18.15625 31.3125 L 16.65625 31.3125 L 16.65625 29.875 z M 18.65625 29.875 L 20.15625 29.875 L 20.15625 31.3125 L 18.65625 31.3125 L 18.65625 29.875 z M 20.65625 29.875 L 22.15625 29.875 L 22.15625 31.3125 L 20.65625 31.3125 L 20.65625 29.875 z M 22.65625 29.875 L 24.15625 29.875 L 24.15625 31.3125 L 22.65625 31.3125 L 22.65625 29.875 z M 24.65625 29.875 L 26.1875 29.875 L 26.1875 31.3125 L 24.65625 31.3125 L 24.65625 29.875 z M 26.6875 29.875 L 28.15625 29.875 L 28.15625 31.3125 L 26.6875 31.3125 L 26.6875 29.875 z M 28.65625 29.875 L 30.15625 29.875 L 30.15625 31.3125 L 28.65625 31.3125 L 28.65625 29.875 z M 30.65625 29.875 L 32.15625 29.875 L 32.15625 31.3125 L 30.65625 31.3125 L 30.65625 29.875 z M 32.65625 29.875 L 34.15625 29.875 L 34.15625 31.3125 L 32.65625 31.3125 L 32.65625 29.875 z M 34.65625 29.875 L 36.15625 29.875 L 36.15625 31.3125 L 34.65625 31.3125 L 34.65625 29.875 z M 36.65625 29.875 L 38.15625 29.875 L 38.15625 31.3125 L 36.65625 31.3125 L 36.65625 29.875 z M 8.65625 31.8125 L 10.15625 31.8125 L 10.15625 33.3125 L 8.65625 33.3125 L 8.65625 31.8125 z M 10.65625 31.8125 L 12.1875 31.8125 L 12.1875 33.3125 L 10.65625 33.3125 L 10.65625 31.8125 z M 12.6875 31.8125 L 14.15625 31.8125 L 14.15625 33.3125 L 12.6875 33.3125 L 12.6875 31.8125 z M 14.65625 31.8125 L 16.15625 31.8125 L 16.15625 33.3125 L 14.65625 33.3125 L 14.65625 31.8125 z M 16.65625 31.8125 L 18.15625 31.8125 L 18.15625 33.3125 L 16.65625 33.3125 L 16.65625 31.8125 z M 18.65625 31.8125 L 20.15625 31.8125 L 20.15625 33.3125 L 18.65625 33.3125 L 18.65625 31.8125 z M 20.65625 31.8125 L 22.15625 31.8125 L 22.15625 33.3125 L 20.65625 33.3125 L 20.65625 31.8125 z M 22.65625 31.8125 L 24.15625 31.8125 L 24.15625 33.3125 L 22.65625 33.3125 L 22.65625 31.8125 z M 24.65625 31.8125 L 26.1875 31.8125 L 26.1875 33.3125 L 24.65625 33.3125 L 24.65625 31.8125 z M 26.6875 31.8125 L 28.15625 31.8125 L 28.15625 33.3125 L 26.6875 33.3125 L 26.6875 31.8125 z M 28.65625 31.8125 L 30.15625 31.8125 L 30.15625 33.3125 L 28.65625 33.3125 L 28.65625 31.8125 z M 30.65625 31.8125 L 32.15625 31.8125 L 32.15625 33.3125 L 30.65625 33.3125 L 30.65625 31.8125 z M 32.65625 31.8125 L 34.15625 31.8125 L 34.15625 33.3125 L 32.65625 33.3125 L 32.65625 31.8125 z M 34.65625 31.8125 L 36.15625 31.8125 L 36.15625 33.3125 L 34.65625 33.3125 L 34.65625 31.8125 z M 36.65625 31.8125 L 38.15625 31.8125 L 38.15625 33.3125 L 36.65625 33.3125 L 36.65625 31.8125 z M 8.65625 33.8125 L 10.15625 33.8125 L 10.15625 35.375 L 8.65625 35.375 L 8.65625 33.8125 z M 10.65625 33.8125 L 12.1875 33.8125 L 12.1875 35.375 L 10.65625 35.375 L 10.65625 33.8125 z M 12.6875 33.8125 L 14.15625 33.8125 L 14.15625 35.375 L 12.6875 35.375 L 12.6875 33.8125 z M 14.65625 33.8125 L 16.15625 33.8125 L 16.15625 35.375 L 14.65625 35.375 L 14.65625 33.8125 z M 16.65625 33.8125 L 18.15625 33.8125 L 18.15625 35.375 L 16.65625 35.375 L 16.65625 33.8125 z M 18.65625 33.8125 L 20.15625 33.8125 L 20.15625 35.375 L 18.65625 35.375 L 18.65625 33.8125 z M 20.65625 33.8125 L 22.15625 33.8125 L 22.15625 35.375 L 20.65625 35.375 L 20.65625 33.8125 z M 22.65625 33.8125 L 24.15625 33.8125 L 24.15625 35.375 L 22.65625 35.375 L 22.65625 33.8125 z M 24.65625 33.8125 L 26.1875 33.8125 L 26.1875 35.375 L 24.65625 35.375 L 24.65625 33.8125 z M 26.6875 33.8125 L 28.15625 33.8125 L 28.15625 35.375 L 26.6875 35.375 L 26.6875 33.8125 z M 28.65625 33.8125 L 30.15625 33.8125 L 30.15625 35.375 L 28.65625 35.375 L 28.65625 33.8125 z M 30.65625 33.8125 L 32.15625 33.8125 L 32.15625 35.375 L 30.65625 35.375 L 30.65625 33.8125 z M 32.65625 33.8125 L 34.15625 33.8125 L 34.15625 35.375 L 32.65625 35.375 L 32.65625 33.8125 z M 34.65625 33.8125 L 36.15625 33.8125 L 36.15625 35.375 L 34.65625 35.375 L 34.65625 33.8125 z M 36.65625 33.8125 L 38.15625 33.8125 L 38.15625 35.375 L 36.65625 35.375 L 36.65625 33.8125 z M 8.65625 35.875 L 10.15625 35.875 L 10.15625 37.3125 L 8.65625 37.3125 L 8.65625 35.875 z M 10.65625 35.875 L 12.1875 35.875 L 12.1875 37.3125 L 10.65625 37.3125 L 10.65625 35.875 z M 12.6875 35.875 L 14.15625 35.875 L 14.15625 37.3125 L 12.6875 37.3125 L 12.6875 35.875 z M 14.65625 35.875 L 16.15625 35.875 L 16.15625 37.3125 L 14.65625 37.3125 L 14.65625 35.875 z M 16.65625 35.875 L 18.15625 35.875 L 18.15625 37.3125 L 16.65625 37.3125 L 16.65625 35.875 z M 18.65625 35.875 L 20.15625 35.875 L 20.15625 37.3125 L 18.65625 37.3125 L 18.65625 35.875 z M 20.65625 35.875 L 22.15625 35.875 L 22.15625 37.3125 L 20.65625 37.3125 L 20.65625 35.875 z M 22.65625 35.875 L 24.15625 35.875 L 24.15625 37.3125 L 22.65625 37.3125 L 22.65625 35.875 z M 24.65625 35.875 L 26.1875 35.875 L 26.1875 37.3125 L 24.65625 37.3125 L 24.65625 35.875 z M 26.6875 35.875 L 28.15625 35.875 L 28.15625 37.3125 L 26.6875 37.3125 L 26.6875 35.875 z M 28.65625 35.875 L 30.15625 35.875 L 30.15625 37.3125 L 28.65625 37.3125 L 28.65625 35.875 z M 30.65625 35.875 L 32.15625 35.875 L 32.15625 37.3125 L 30.65625 37.3125 L 30.65625 35.875 z M 32.65625 35.875 L 34.15625 35.875 L 34.15625 37.3125 L 32.65625 37.3125 L 32.65625 35.875 z M 34.65625 35.875 L 36.15625 35.875 L 36.15625 37.3125 L 34.65625 37.3125 L 34.65625 35.875 z M 36.65625 35.875 L 38.15625 35.875 L 38.15625 37.3125 L 36.65625 37.3125 L 36.65625 35.875 z M 8.65625 37.8125 L 10.15625 37.8125 L 10.15625 39.375 L 8.65625 39.375 L 8.65625 37.8125 z M 10.65625 37.8125 L 12.1875 37.8125 L 12.1875 39.375 L 10.65625 39.375 L 10.65625 37.8125 z M 12.6875 37.8125 L 14.15625 37.8125 L 14.15625 39.375 L 12.6875 39.375 L 12.6875 37.8125 z M 14.65625 37.8125 L 16.15625 37.8125 L 16.15625 39.375 L 14.65625 39.375 L 14.65625 37.8125 z M 16.65625 37.8125 L 18.15625 37.8125 L 18.15625 39.375 L 16.65625 39.375 L 16.65625 37.8125 z M 18.65625 37.8125 L 20.15625 37.8125 L 20.15625 39.375 L 18.65625 39.375 L 18.65625 37.8125 z M 20.65625 37.8125 L 22.15625 37.8125 L 22.15625 39.375 L 20.65625 39.375 L 20.65625 37.8125 z M 22.65625 37.8125 L 24.15625 37.8125 L 24.15625 39.375 L 22.65625 39.375 L 22.65625 37.8125 z M 24.65625 37.8125 L 26.1875 37.8125 L 26.1875 39.375 L 24.65625 39.375 L 24.65625 37.8125 z M 26.6875 37.8125 L 28.15625 37.8125 L 28.15625 39.375 L 26.6875 39.375 L 26.6875 37.8125 z M 28.65625 37.8125 L 30.15625 37.8125 L 30.15625 39.375 L 28.65625 39.375 L 28.65625 37.8125 z M 30.65625 37.8125 L 32.15625 37.8125 L 32.15625 39.375 L 30.65625 39.375 L 30.65625 37.8125 z M 32.65625 37.8125 L 34.15625 37.8125 L 34.15625 39.375 L 32.65625 39.375 L 32.65625 37.8125 z M 34.65625 37.8125 L 36.15625 37.8125 L 36.15625 39.375 L 34.65625 39.375 L 34.65625 37.8125 z M 36.65625 37.8125 L 38.15625 37.8125 L 38.15625 39.375 L 36.65625 39.375 L 36.65625 37.8125 z " id="path-main"/>
    </g>
  </defs>
  <g id="acyl-visual">
    <use id="visible1" transform="translate(24,24) scale(1.00) translate(-24,-24)" style="fill:url(#acyl-gradient)" xlink:href="#acyl-drawing"/>
  </g>
</svg>
