<svg xmlns="http://www.w3.org/2000/svg" xmlns:xlink="http://www.w3.org/1999/xlink" width="48" height="48">
  <defs id="acyl-settings">
    <linearGradient x1="0%" y1="0%" x2="0%" y2="100%" id="acyl-gradient">
      <stop offset="0%" style="stop-color:#8FA1B3;stop-opacity:1.000000"/>
    </linearGradient>
    <g id="acyl-filter">
  </g>
    <g id="acyl-drawing">
      <path id="path-main" d="m 14.651166,2 c -1.1591,2.7784723 -1.767444,5.8539909 -1.767444,9.05925 2e-6,12.821035 10.245278,23.21433 22.88372,23.21433 3.691078,0 7.143872,-0.877524 10.232558,-2.453546 C 42.522711,40.155447 34.362551,45.975113 24.883721,45.975113 12.245279,45.975113 2,35.581817 2,22.760782 2,13.684153 7.1640362,5.8203578 14.651166,2 z"/>
    </g>
  </defs>
  <g id="acyl-visual">
    <use id="visible1" transform="translate(24,24) scale(1.00) translate(-24,-24)" style="fill:url(#acyl-gradient)" xlink:href="#acyl-drawing"/>
  </g>
</svg>
