<svg xmlns="http://www.w3.org/2000/svg" xmlns:xlink="http://www.w3.org/1999/xlink" width="48" height="48">
  <defs id="acyl-settings">
    <linearGradient x1="0%" y1="0%" x2="0%" y2="100%" id="acyl-gradient">
      <stop offset="0%" style="stop-color:#8FA1B3;stop-opacity:1.000000"/>
    </linearGradient>
    <g id="acyl-filter">
  </g>
    <g id="acyl-drawing">
      <path d="M 24,2 C 11.84964,2 2,11.849638 2,24 2,36.15036 11.84964,46 24,46 36.150362,46 46,36.15036 46,24 46,11.849638 36.150362,2 24,2 z m 0,3.120309 c 10.428264,0 18.879692,8.451427 18.879692,18.879691 0,3.191363 -0.800113,6.191196 -2.197573,8.826711 -2.253118,-0.593554 -4.728659,-1.074985 -7.369757,-1.42053 l 0,-15.152318 c -2.6e-5,-1.326179 0.144826,-2.17738 0.437086,-2.549669 0.478173,-0.604912 1.285862,-0.910573 2.428256,-0.910596 l 0.959162,0 0,-0.643488 -9.409493,0 0,0.643488 0.934879,0 c 1.062644,2.3e-5 1.83962,0.252039 2.331126,0.740618 0.371908,0.360654 0.558476,1.265501 0.558498,2.719647 l 0,12.262693 -15.225165,-16.366446 -7.017661,0 C 12.769809,7.865832 18.06266,5.120309 24,5.120309 z m -15.006622,7.430464 0,0.242825 c 0.783716,2.3e-5 1.363129,0.05316 1.748344,0.157837 0.783716,0.221056 1.374125,0.460424 1.772627,0.716335 0.289941,0.180223 0.67854,0.507748 1.153421,0.959162 l 0,16.779249 C 11.370263,31.707167 9.205459,32.118054 7.196468,32.608168 5.870768,30.026035 5.120309,27.10262 5.120309,24 c 0,-4.307924 1.444995,-8.272443 3.873069,-11.449227 z m 6.422737,3.897351 0.655629,0.692052 12.930463,13.84106 c -1.789917,-0.125679 -3.638264,-0.19426 -5.524282,-0.19426 -2.792481,0 -5.496228,0.14235 -8.06181,0.412803 l 0,-14.751655 z m 10.42936,15.735099 c 5.227029,0 10.138749,0.508476 14.423841,1.396247 C 36.985239,39.1432 30.929475,42.87969 24,42.87969 c -6.599453,0 -12.396446,-3.39472 -15.771523,-8.523178 1.668931,-0.457686 3.453574,-0.855063 5.354305,-1.177704 -0.07145,0.513538 -0.187104,0.870388 -0.352098,1.080574 -0.478207,0.604933 -1.29689,0.910598 -2.452538,0.910596 l -0.934879,0 0,0.643492 9.409492,0 0,-0.643492 -0.959161,0 c -1.049392,2e-6 -1.826367,-0.239876 -2.331126,-0.728477 -0.249779,-0.251155 -0.422156,-0.77257 -0.497792,-1.554084 3.235664,-0.451662 6.732298,-0.704194 10.380795,-0.704194 z" id="path-main"/>
    </g>
  </defs>
  <g id="acyl-visual">
    <use id="visible1" transform="translate(24,24) scale(1.00) translate(-24,-24)" style="fill:url(#acyl-gradient)" xlink:href="#acyl-drawing"/>
  </g>
</svg>
