<svg xmlns="http://www.w3.org/2000/svg" xmlns:xlink="http://www.w3.org/1999/xlink" width="48" height="48">
  <defs id="acyl-settings">
    <linearGradient x1="0%" y1="0%" x2="0%" y2="100%" id="acyl-gradient">
      <stop offset="0%" style="stop-color:#8FA1B3;stop-opacity:1.000000"/>
    </linearGradient>
    <g id="acyl-filter">
  </g>
    <g id="acyl-drawing">
      <path d="M 23.902897,2.0000007 2.6648064,23.837152 5.376052,26.655848 2.2430571,29.877215 c -0.3677651,0.378139 -0.2943266,0.998307 0.06025,1.362886 L 16.371659,45.705278 c 0.354576,0.364574 0.957732,0.409113 1.325498,0.03097 l 3.132995,-3.221367 3.012495,3.097469 3.272322,-3.360753 3.174417,3.267829 c 0.367765,0.378137 1.001046,0.36458 1.355623,0 L 45.713362,31.023278 c 0.354577,-0.364578 0.397887,-0.984748 0.03012,-1.362886 L 42.580367,26.40805 45.080738,23.837152 23.902897,2.0000007 z m -0.06025,8.1773163 c 0.128914,-0.0041 0.267285,0.01355 0.421749,0.03097 0.968379,0.10923 1.044689,0.216694 1.144748,1.920431 0.09611,1.636534 0.207582,1.86529 1.174873,2.261152 0.802129,0.328262 1.17085,0.332593 1.476123,0.03097 0.826757,-0.816849 1.657245,-0.459595 2.018372,0.898266 1.353738,5.090166 1.343786,5.136841 -0.331375,5.544468 -0.753711,0.18341 -1.009954,0.02409 -1.596622,-1.053139 -0.380285,-0.698273 -1.139009,-1.596846 -1.686997,-1.98238 l -0.994124,-0.712417 0,2.137253 0,2.137253 2.229247,0.99119 c 2.518984,1.128489 4.028707,2.672803 4.368118,4.460354 0.584015,3.075791 -1.76208,6.086253 -5.332117,6.81443 -1.001189,0.204205 -1.073998,0.325299 -1.174873,2.044329 -0.106377,1.812807 -0.140625,1.827506 -1.295373,1.827506 -1.513235,0 -1.623084,-0.157222 -1.626747,-2.075303 -0.0029,-1.567745 -0.0501,-1.621736 -1.747247,-2.50895 l -1.747248,-0.92924 -0.361499,0.836316 c -0.208697,0.452558 -0.709758,0.836317 -1.084498,0.836317 -0.576192,0 -0.752571,-0.499718 -1.235123,-3.097468 -0.75817,-4.081482 -0.756215,-4.514038 0.210874,-4.770102 1.317857,-0.348948 1.511107,-0.260365 2.199122,0.929241 0.787467,1.361568 2.270357,3.006903 3.132995,3.469164 0.566333,0.303473 0.632624,0.08395 0.632624,-2.261151 l 0,-2.570899 -1.325498,-0.46462 c -2.085986,-0.724947 -3.665784,-1.786769 -4.398243,-2.97357 -0.950247,-1.539665 -0.873952,-4.011335 0.150625,-5.513493 0.952918,-1.397112 3.225862,-2.748818 4.609117,-2.756747 0.89023,-0.0053 0.959082,-0.132492 0.963999,-1.331911 0.0064,-1.544438 0.302598,-2.140073 1.204998,-2.168228 z m -1.566498,6.473708 c -0.438413,-0.04248 -1.534362,0.52885 -1.867747,1.022165 -0.469507,0.694735 -0.262611,1.26234 0.692874,2.137253 0.517102,0.473491 1.068234,0.867291 1.235123,0.867291 0.347335,0 0.430991,-3.628221 0.09038,-3.964759 -0.03267,-0.03227 -0.08799,-0.05588 -0.150625,-0.06195 z m 3.193245,9.571177 0,2.354076 c 0,2.262203 0.03979,2.340596 0.813374,2.106279 1.319198,-0.399579 1.739396,-0.921738 1.626747,-2.044329 -0.07761,-0.773456 -0.4274,-1.253003 -1.265248,-1.734583 l -1.174873,-0.681443 z m 16.478349,0.898266 3.10287,3.221367 c -4.702991,4.808587 -9.401388,9.753872 -14.098478,14.496152 L 27.849265,41.61662 41.947743,27.120468 z M 6.0388009,27.306316 20.167403,41.833442 17.034408,45.085784 C 12.384032,40.193501 7.632652,35.307861 2.905806,30.558658 l 3.1329949,-3.252342 z" id="path-main"/>
    </g>
  </defs>
  <g id="acyl-visual">
    <use id="visible1" transform="translate(24,24) scale(1.00) translate(-24,-24)" style="fill:url(#acyl-gradient)" xlink:href="#acyl-drawing"/>
  </g>
</svg>
