<svg xmlns="http://www.w3.org/2000/svg" xmlns:xlink="http://www.w3.org/1999/xlink" width="48" height="48">
  <defs id="acyl-settings">
    <linearGradient x1="0%" y1="0%" x2="0%" y2="100%" id="acyl-gradient">
      <stop offset="0%" style="stop-color:#8FA1B3;stop-opacity:1.000000"/>
    </linearGradient>
    <g id="acyl-filter">
  </g>
    <g id="acyl-drawing">
      <path id="path-main" d="M 34.209586,2.000007 33.831778,2.0581312 5.3218709,6.0977613 5.03125,6.1558855 l 0,0.2906208 1.1043593,24.2668427 0.029062,0.377807 0.3778071,-0.08719 10.8692206,-2.295905 3.545575,2.557464 0.116248,0.08719 0.174373,-0.05812 5.202113,-1.859974 0.232497,-0.08719 -0.02906,-0.261559 -0.319683,-2.266843 7.614267,-1.598414 0.261559,-0.05812 0,-0.261558 0,-22.5231179 0,-0.3778071 z m -0.639366,0.7556143 0,21.8837517 L 6.7459131,30.30648 5.6706159,6.7371272 33.57022,2.7556213 z M 32.46586,4.7609053 6.8912236,7.986797 7.8793345,27.690892 32.959916,23.564076 32.46586,4.7609053 z M 11.308661,9.817708 11.512095,10.95113 c 0.305891,-0.03601 0.608295,-0.06447 0.900925,-0.05812 0.292097,0.0031 0.586492,0.04281 0.871863,0.08719 l 0.116248,0.8428 c -0.293288,-0.09338 -0.572277,-0.145682 -0.871863,-0.174372 -0.296325,-0.0292 -0.5983,-0.03548 -0.900924,0 l 0.319683,2.09247 c 0.759958,-0.0055 1.346708,0.11124 1.743725,0.348745 0.397009,0.237514 0.644213,0.623855 0.726552,1.133422 0.08919,0.552036 -0.02809,1.0147 -0.348745,1.39498 -0.317921,0.376489 -0.820124,0.651797 -1.511228,0.813738 l 0.232496,1.482167 -0.494055,0.08719 -0.232497,-1.482166 c -0.344037,0.04888 -0.691646,0.07457 -1.046235,0.05812 -0.35512,-0.01971 -0.734364,-0.08333 -1.1043594,-0.174373 l -0.1453104,-0.87187 c 0.3669578,0.155221 0.7472278,0.237717 1.1043598,0.29062 0.359866,0.04911 0.712188,0.05532 1.075297,0 l -0.348745,-2.23778 c -0.740893,-9.3e-4 -1.3103,-0.121131 -1.6856014,-0.348745 -0.3720367,-0.228135 -0.589261,-0.585322 -0.668428,-1.075298 -0.086028,-0.532429 0.013249,-0.972273 0.319683,-1.336856 0.3064334,-0.364569 0.7941314,-0.631271 1.4531044,-0.784676 l -0.174373,-1.133421 0.464994,-0.08719 z m -0.174373,1.918098 c -0.372051,0.103694 -0.642457,0.259681 -0.813738,0.464994 -0.171284,0.205323 -0.24988,0.439108 -0.203435,0.726552 0.04539,0.280921 0.16955,0.483073 0.377807,0.610304 0.211522,0.126711 0.539655,0.200815 0.959049,0.203434 l -0.319683,-2.005284 z m 11.13078,0.02906 0.116248,0.871863 c -0.301292,0.313472 -0.566768,0.538934 -0.8428,0.69749 -0.272778,0.158036 -0.584082,0.268492 -0.900925,0.319683 -0.359316,0.05806 -0.799754,0.02848 -1.307794,-0.08719 -0.03805,-0.0073 -0.04074,0.0039 -0.05812,0 -0.02445,-0.0061 -0.06462,-0.02065 -0.116249,-0.02906 -0.539029,-0.120713 -0.971685,-0.165857 -1.278731,-0.116249 -0.287452,0.04644 -0.553408,0.146905 -0.813739,0.319683 -0.260862,0.169519 -0.537431,0.432777 -0.813738,0.755614 l -0.145311,-0.871862 c 0.301285,-0.313465 0.59909,-0.539454 0.871863,-0.69749 0.275507,-0.161823 0.555012,-0.268484 0.871862,-0.319683 0.35931,-0.05805 0.795953,-0.03121 1.307794,0.08719 0.03477,0.0078 0.0698,-0.0039 0.08719,0 0.02771,0.0056 0.06787,0.02013 0.116248,0.02906 0.539022,0.12072 0.971678,0.165864 1.278732,0.116249 0.280911,-0.04538 0.530342,-0.151219 0.784676,-0.319683 0.257589,-0.168983 0.550681,-0.426864 0.842801,-0.755615 z m -10.171731,2.848085 0.348745,2.121532 c 0.405867,-0.122556 0.691832,-0.309682 0.871863,-0.523117 0.183288,-0.21396 0.250931,-0.46163 0.203434,-0.755615 -0.04645,-0.287444 -0.176907,-0.502226 -0.406869,-0.639364 -0.226704,-0.137658 -0.570069,-0.19523 -1.017173,-0.203434 z m 25.225892,11.537648 -0.145311,0.05812 -30.2536323,10.142668 -0.2906209,0.08719 0.058124,0.290621 c 0,0 1.4879991,6.078757 8.6605022,9.212682 L 15.464539,46 15.580788,45.97094 C 20.682497,43.956141 44.555689,33.241751 44.555689,33.241751 l 0.174372,-0.08719 0,-0.203434 0.05812,-1.889036 0.05812,-0.02906 -0.02906,-0.08719 0,-0.290621 0,-0.174373 -0.174372,-0.116248 -7.207398,-4.126816 -0.116248,-0.08719 z m -0.08719,0.726553 6.713342,3.836195 L 15.667974,43.413481 7.9083966,36.700139 37.232043,26.877154 z m -11.537649,0.08719 0.290621,1.94716 -4.795245,1.714663 -2.906208,-2.09247 7.410832,-1.569353 z m 11.043593,0.523117 -22.755614,8.253633 0.232497,0.610304 22.726552,-8.253633 -0.203435,-0.610304 z m 1.453104,0.842801 -22.755614,8.63144 0.232497,0.610304 22.755614,-8.63144 -0.232497,-0.610304 z m 1.394981,1.104359 -17.291942,7.120212 0.261559,0.610303 17.291941,-7.120211 -0.261558,-0.610304 z m 1.656539,0.900925 -13.36856,5.812417 0.261558,0.610304 13.339498,-5.841479 -0.232496,-0.581242 z m 2.906208,1.017173 -0.05812,1.365918 C 43.767256,32.863736 21.45654,42.88879 15.842346,45.157206 l 0.02906,-1.104359 28.27741,-12.700132 z m -17.989432,4.678996 -0.203434,0.08719 -3.603699,1.685601 -1.801849,-1.249669 -0.145311,-0.08719 -0.174372,0.05812 -4.475562,2.005284 -3.254954,-2.295905 -0.14531,-0.08719 -0.14531,0.05813 -2.3249674,0.871862 -0.5231176,0.203435 0.4359313,0.348745 4.5918097,3.778071 0.145311,0.116249 0.174372,-0.08719 5.318362,-2.23778 1.656539,0.959048 0.14531,0.08719 0.174373,-0.05812 5.2893,-2.441216 0.435931,-0.203434 -0.348745,-0.348745 -1.075297,-1.017173 -0.145311,-0.145311 z m -0.14531,0.755614 0.581242,0.55218 -4.708058,2.179657 -1.685601,-0.959049 -0.145311,-0.08719 -0.14531,0.05813 -5.260238,2.23778 -3.981506,-3.284016 1.627477,-0.610303 3.225891,2.295905 0.145311,0.116248 0.174372,-0.08719 4.475562,-1.976222 1.830911,1.220607 0.145311,0.116249 0.174372,-0.08719 3.545575,-1.685601 z m -18.4544254,0.464994 7.6723914,6.655218 -0.02906,1.249669 C 9.754891,42.606426 7.9953499,38.55429 7.5596516,37.252319 z"/>
    </g>
  </defs>
  <g id="acyl-visual">
    <use id="visible1" transform="translate(24,24) scale(1.00) translate(-24,-24)" style="fill:url(#acyl-gradient)" xlink:href="#acyl-drawing"/>
  </g>
</svg>
