<svg xmlns="http://www.w3.org/2000/svg" xmlns:xlink="http://www.w3.org/1999/xlink" width="48" height="48">
  <defs id="acyl-settings">
    <linearGradient x1="0%" y1="0%" x2="0%" y2="100%" id="acyl-gradient">
      <stop offset="0%" style="stop-color:#8FA1B3;stop-opacity:1.000000"/>
    </linearGradient>
    <g id="acyl-filter">
  </g>
    <g id="acyl-drawing">
      <path id="path-main" d="M 17.088344,2.0950868 C 8.7576728,2.0950868 2,8.81883 2,17.107674 c 0,8.288844 6.7576724,15.012588 15.088344,15.012587 1.358056,0 2.670406,-0.206231 3.922396,-0.541251 l 0,4.728823 c -1.640534,-0.32214 -3.496758,-0.427398 -5.582974,0 -2.294512,0.47007 -4.277655,1.340202 -5.6974954,2.421385 -1.4198401,1.081184 -2.4297413,2.534299 -2.0614055,4.102111 0.3687412,1.56954 1.8721225,2.427405 3.6360899,2.848688 1.763968,0.421282 3.976109,0.44148 6.270109,-0.02848 2.15939,-0.442387 4.143262,-1.216393 5.668865,-2.19349 1.50306,-0.96266 2.66233,-2.173867 2.634018,-3.731781 l 0.02864,0 0,-0.05698 0.114523,-10.483173 c 2.718633,-1.994224 4.71621,-4.86721 5.611604,-8.204223 3.881966,-0.545671 8.077759,-1.140356 9.276324,-1.310396 l 0,14.357389 c -4.57747,-0.489617 -7.818905,0.162038 -9.877568,1.36737 -2.239292,1.311089 -3.216459,3.216686 -2.834433,4.84277 0.368742,1.569536 1.872122,2.455892 3.636091,2.877175 1.763967,0.421285 3.947477,0.412993 6.241477,-0.05698 2.036917,-0.417297 3.812844,-1.141979 5.153514,-2.051056 1.340672,-0.909076 2.319599,-2.009214 2.519496,-3.361452 l 0.257667,-25.666675 -11.022038,1.368079 -3.207387,0.398108 C 30.238678,7.0780085 24.255313,2.0950868 17.088344,2.0950868 z m 0,3.389939 c 5.421418,-1e-7 9.98177,3.6819932 11.309099,8.6600122 l -7.386703,0.91158 0,13.018506 c -1.231217,0.438721 -2.541403,0.683685 -3.922396,0.683685 -6.457105,1e-6 -11.6812988,-5.226449 -11.6812988,-11.651135 1e-7,-6.424686 5.2241938,-11.6226482 11.6812988,-11.6226482 z m 0,8.0617872 c -1.973933,0 -3.578829,1.596838 -3.578829,3.560861 0,1.964022 1.604895,3.560861 3.578829,3.56086 1.973932,0 3.578828,-1.596838 3.578828,-3.56086 0,-1.964022 -1.604897,-3.560861 -3.578828,-3.560861 z m 10.851008,7.947841 c -0.456092,1.111228 -1.100968,2.138587 -1.86099,3.048096 l 0.02863,-2.791714 c 0.179004,-0.0254 1.383737,-0.193199 1.83236,-0.256382 z"/>
    </g>
  </defs>
  <g id="acyl-visual">
    <use id="visible1" transform="translate(24,24) scale(1.00) translate(-24,-24)" style="fill:url(#acyl-gradient)" xlink:href="#acyl-drawing"/>
  </g>
</svg>
