<svg xmlns="http://www.w3.org/2000/svg" xmlns:xlink="http://www.w3.org/1999/xlink" width="48" height="48">
  <defs id="acyl-settings">
    <linearGradient x1="0%" y1="0%" x2="0%" y2="100%" id="acyl-gradient">
      <stop offset="0%" style="stop-color:#8FA1B3;stop-opacity:1.000000"/>
    </linearGradient>
    <g id="acyl-filter">
  </g>
    <g id="acyl-drawing">
      <path d="m 2,2 0,44 44,0 0,-44 z m 2.485957,2.485145 8.435008,0 0,7.570356 -8.435008,0 z m 11.294577,0 7.127368,0 0,6.220046 0.301763,-0.718251 c 0.339506,-0.798479 1.489067,-1.108457 2.184194,-0.588965 l 0.359242,0.272935 0,-5.185765 7.845853,0 0,7.570356 -4.641411,0 3.851078,2.858635 0.790333,0 0,0.588965 2.845199,2.12602 0,-2.714985 1.983018,0 1.192684,-2.858635 -3.175702,0 0,-7.570356 7.06989,0 0,7.340516 -1.221424,-2.427686 -1.163945,2.772446 -3.419988,8.173685 -11.768779,-8.748285 -1.40823,-1.048645 -0.675375,1.60888 -6.466362,15.183806 -2.256042,-4.726086 -1.666885,-3.50506 -0.90529,3.777995 -2.011755,8.274241 -5.949054,-10.931766 -0.114957,0.05746 0,-5.37251 8.435008,0 0,2.887365 c 0.665825,-0.27612 1.519289,0.04383 1.839321,0.68952 l 1.020248,2.140385 0,-5.71727 5.345526,0 1.207054,-2.858635 -6.55258,0 z m 9.915088,10.357166 11.783149,8.76265 1.4226,1.048645 0.675375,-1.623245 2.931419,-7.024485 1.005878,2.0111 0,4.0222 -1.968648,0 -0.646636,1.537055 0,0.01437 -0.546049,1.29285 3.161333,0 0,7.843291 -7.06989,0 0,-7.843291 0.344873,0 -0.158067,-0.11492 c -0.0048,-0.0048 -0.0096,-0.0095 -0.01435,-0.01436 l -3.649902,-2.714985 -7.213586,0 0,-3.67744 -2.845199,6.708455 0,7.656546 -3.26192,0 -0.790334,1.881813 c -0.21643,0.50282 -0.741735,0.85687 -1.28917,0.8689 -0.547436,0.012 -1.087794,-0.31861 -1.326114,-0.81144 l -1.322012,-2.772443 -0.158066,-0.330395 -0.977139,4.050928 c 2.4e-5,0.005 2.4e-5,0.01 0,0.0144 l -0.847812,3.47633 c -0.0046,0.0144 -0.0093,0.0288 -0.01435,0.0431 l 0,4.3526 -8.435008,0 0,-7.92948 3.678641,0 -1.551926,-2.844273 -2.126715,0 0,-6.923931 5.345526,9.825664 1.709993,3.13157 0.84781,-3.47633 1.925539,-7.972578 1.8968,3.96474 1.322012,2.772445 1.192684,-2.81554 6.969301,-16.390466 z m -18.465054,7.196865 1.537558,2.84427 1.824951,0 0.574787,-2.32713 0,-0.01436 0.114958,-0.502775 z m 9.210972,0 0.876551,1.80999 0.775964,-1.80999 z m 9.311561,2.84427 7.845853,0 0,7.843291 -7.845853,0 z m -9.972567,10.687564 7.127368,0 0,7.92948 -7.127368,0 z m 9.972567,0 7.845853,0 0,7.92948 -7.845853,0 z m 10.691052,0 7.06989,0 0,7.92948 -7.06989,0 z" id="path-main"/>
    </g>
  </defs>
  <g id="acyl-visual">
    <use id="visible1" transform="translate(24,24) scale(1.00) translate(-24,-24)" style="fill:url(#acyl-gradient)" xlink:href="#acyl-drawing"/>
  </g>
</svg>
