<svg xmlns="http://www.w3.org/2000/svg" xmlns:xlink="http://www.w3.org/1999/xlink" width="48" height="48">
  <defs id="acyl-settings">
    <linearGradient x1="0%" y1="0%" x2="0%" y2="100%" id="acyl-gradient">
      <stop offset="0%" style="stop-color:#8FA1B3;stop-opacity:1.000000"/>
    </linearGradient>
    <g id="acyl-filter">
  </g>
    <g id="acyl-drawing">
      <path d="M 22.5625 2 L 22.5625 9.9375 C 19.328281 10.402153 16.275735 11.745509 13.71875 13.84375 L 13.6875 13.8125 C 7.1467052 19.013079 5.141804 28.136416 8.8125 35.625 L 8.78125 35.65625 C 8.803442 35.7043 8.852417 35.73347 8.875 35.78125 C 12.400397 43.240146 20.634677 47.355744 28.71875 45.625 C 28.74064 45.6203 28.75936 45.59852 28.78125 45.59375 C 28.81134 45.58795 28.84497 45.59965 28.875 45.59375 C 37.311431 43.933449 43.448164 36.377713 43.28125 27.75 L 32.90625 27.96875 C 32.96942 31.23394 30.029173 34.865994 26.8125 35.46875 A 5.1770175 5.1770175 0 0 0 26.625 35.5 C 23.521044 36.194042 19.524222 34.206926 18.1875 31.3125 A 5.1770175 5.1770175 0 0 0 18.125 31.15625 C 16.694508 28.307405 17.6616 23.920994 20.15625 21.9375 A 5.1770175 5.1770175 0 0 0 20.21875 21.875 C 20.891863 21.315524 21.707395 20.870722 22.5625 20.5625 L 22.5625 27.875 L 41.96875 14.9375 L 22.5625 2 z " id="path-main"/>
    </g>
  </defs>
  <g id="acyl-visual">
    <use id="visible1" transform="translate(24,24) scale(1.00) translate(-24,-24)" style="fill:url(#acyl-gradient)" xlink:href="#acyl-drawing"/>
  </g>
</svg>
