<svg xmlns="http://www.w3.org/2000/svg" xmlns:xlink="http://www.w3.org/1999/xlink" width="48" height="48">
  <defs id="acyl-settings">
    <linearGradient x1="0%" y1="0%" x2="0%" y2="100%" id="acyl-gradient">
      <stop offset="0%" style="stop-color:#8FA1B3;stop-opacity:1.000000"/>
    </linearGradient>
    <g id="acyl-filter">
  </g>
    <g id="acyl-drawing">
      <path d="m 22.162849,2.0000014 c -7.065472,0 -7.948655,4.7505714 -7.948655,4.7505714 l 0.09314,7.0792712 c 0,0 -1.321327,0.307043 -1.210928,1.521422 0.110398,1.214378 0.993581,1.769818 0.993581,1.769818 l -1.210927,3.974328 -2.26661,1.304076 c -2.16289,1.052536 -3.66826,3.120939 -5.3010009,4.859694 -1.27133,1.763499 -1.3172667,2.629913 -1.3435736,4.827731 -0.011153,3.914468 3.0162208,8.357914 7.8555075,8.81804 -1.413848,0.470237 -2.6842723,1.198257 -3.9122291,2.018213 -0.2751924,0.242017 -0.532232,0.510197 -0.5899393,0.900433 -0.057707,0.390236 0.2143932,0.783056 0.5588901,0.993582 0.6117363,0.373839 1.2770416,0.422809 1.8629659,0.279445 0.2763104,-0.0676 0.4704954,-0.245204 0.7141374,-0.372593 0.0083,0.05903 -0.05189,0.09275 -0.03105,0.155247 0.152077,0.45623 0.526399,0.625794 0.931484,0.745187 0.405084,0.119392 0.884032,0.155347 1.428273,0.09314 0.670637,-0.07664 1.408003,-0.412345 2.111362,-0.900434 0.02481,0.194926 0.04231,0.421502 0.248396,0.55889 0.506074,0.337384 1.193572,0.418893 1.956114,0.403643 0.762541,-0.01525 1.584084,-0.167383 2.173461,-0.683088 0.867771,-0.7593 1.090555,-1.792967 1.148828,-2.17346 0.697928,0.08093 1.444515,0.130654 2.23556,0.124198 l -0.0621,0.03105 c 0,0 0.483444,0.88486 1.241977,1.67667 0.379268,0.395904 0.839206,0.780936 1.366175,1.024631 0.52697,0.243695 1.157352,0.314291 1.769819,0.0621 0.555267,-0.228639 0.931334,-0.583403 1.117779,-0.993582 0.04426,-0.09739 0.0073,-0.181649 0.03105,-0.279444 0.708914,0.576954 1.690498,1.085758 3.042844,0.869383 0.382111,-0.06114 0.683735,-0.133977 0.931483,-0.279445 0.189495,-0.111262 0.281194,-0.328185 0.372593,-0.52784 0.44978,0.214659 0.89739,0.372593 1.366176,0.372593 0.386393,0 0.74349,-0.04945 1.055681,-0.248395 0.156094,-0.09947 0.327345,-0.234795 0.403642,-0.434692 0.0763,-0.199898 0.05905,-0.426102 0,-0.620989 -0.118114,-0.389775 -0.39794,-0.739492 -0.838334,-1.11778 -0.440395,-0.378287 -1.047371,-0.79326 -1.894016,-1.273027 -0.609279,-0.345259 -1.214184,-0.693848 -1.64562,-0.962532 1.725005,-1.565123 2.787028,-3.707577 3.601735,-6.209887 0.951256,-2.921717 -0.652473,-6.533977 -2.28271,-9.472571 l 5.347212,-3.225116 c 0,0 0.40239,-0.193776 0.838335,-0.248396 0.217972,-0.02731 0.436435,-0.02125 0.589939,0.03105 0.153503,0.0523 0.248162,0.123616 0.341544,0.310495 l 0.217346,0.403643 0.403643,-0.155248 c 0.228128,-0.09125 0.538851,-0.256182 0.962532,-0.496791 0.423682,-0.240609 0.936958,-0.547696 1.428274,-0.838334 0.982631,-0.581275 1.894016,-1.14883 1.894016,-1.14883 L 45.143647,18.778962 44.5631,17.65965 c 0,0 -0.71248,-0.836932 -1.490373,-1.831916 -0.777893,-0.994984 -1.637246,-2.176313 -1.862967,-2.670252 l -0.604887,-1.063921 -0.882993,0.579206 c -1.210613,0.83165 -3.384388,2.20451 -3.384388,2.20451 l -0.55889,0.341543 0.341544,0.310495 c -0.04872,0.14616 -0.294318,0.586268 -1.086731,1.273027 -0.254519,0.220583 -1.078059,0.735726 -2.080311,1.273027 -1.002252,0.537301 -2.173531,1.130866 -3.322291,1.738767 l 0.232296,-3.003554 c 0,0 0.485436,-0.660616 0.652472,-0.973458 0.167034,-0.312842 0.170916,-0.293436 0.232437,-0.811885 0.162119,-1.366201 -1.41275,-1.505897 -1.41275,-1.505897 l 0,-6.1167387 c 0,-0.110398 -0.106948,-5.4026019 -7.172419,-5.4026019 z m 2.701301,4.5642745 c 2.461315,-0.1528214 3.218791,3.0428454 3.011795,4.2848221 -0.220796,1.324775 -1.738768,2.73235 -1.738768,2.73235 -0.980572,-0.899959 -1.600583,-2.016256 -3.974328,-2.080312 0,0 -0.665838,-4.212373 2.20451,-4.8747609 0.179397,-0.0414 0.332703,-0.051911 0.496791,-0.062099 z m -6.209887,0.1862969 c 0.136704,-0.021563 0.265645,-0.0138 0.403642,0 1.10398,0.1103979 2.308008,0.5554399 2.639202,2.7633995 0.331194,2.2079597 -0.310494,2.2045097 -0.310494,2.2045097 -1.963602,-0.02114 -2.462699,1.056098 -3.322289,1.862966 0,0 -2.087213,-0.876283 -1.64562,-3.415437 0.386392,-2.2217599 1.278632,-3.2645035 2.235559,-3.4154382 z m 0.620989,2.1113615 c 0,0 -1.335127,0.417442 -1.335127,1.5214217 0,1.10398 0.932398,1.459324 0.932398,1.459324 1.157488,-0.929234 1.627455,-0.41838 1.737854,-1.632759 0.110399,-1.2143777 -1.335125,-1.3479867 -1.335125,-1.3479867 z m 5.526799,-0.03105 c -0.993582,0.110398 -1.102418,0.951067 -1.081403,1.8523107 1.008699,0.533143 1.394104,1.03308 1.394104,1.03308 0.772786,-0.441592 1.022425,-0.839578 1.022425,-1.612364 0,-0.7727857 -0.341544,-1.3834247 -1.335126,-1.2730267 z m -2.92133,4.4469637 c 1.922042,0.0961 2.794449,1.645624 2.794449,1.645624 l 3.098045,-0.160614 c 0,0 1.88928,-0.448943 1.120462,0.800386 -1.324146,1.515505 -3.116993,2.505604 -4.223675,3.926862 -0.3628,0.465926 -0.392878,0.646041 -0.731968,1.225813 -0.339091,0.579771 -3.943133,0.981052 -4.533219,-0.310495 -0.224647,-0.173099 -0.176944,-0.625503 -0.317514,-0.801998 -0.784714,-0.98527 -3.043743,-2.608742 -4.058923,-3.173481 -0.759732,-1.166904 0.149784,-1.433854 0.649354,-1.328224 l 3.222243,-0.0851 c 0,0 1.058704,-1.834871 2.980746,-1.738769 z m 18.352902,0.986686 c 0.413175,0.721845 1.012232,1.571994 1.676667,2.421857 0.593013,0.75851 0.878811,1.109944 1.11778,1.397225 -0.307197,0.185472 -0.673433,0.410177 -1.397225,0.838334 -0.488467,0.288952 -0.982571,0.602854 -1.397224,0.838335 -0.304826,0.173111 -0.476092,0.23671 -0.620989,0.310495 -0.166806,-0.149552 -0.305112,-0.369392 -0.496791,-0.434693 -0.357921,-0.121937 -0.710125,-0.132552 -1.024631,-0.09314 -0.629013,0.07881 -1.14883,0.341544 -1.14883,0.341544 l -0.03105,0 -12.885516,8.072853 c 0,0 -1.428274,1.876766 -0.434692,2.980746 0.993582,1.10398 3.518936,-0.569239 1.862966,1.08673 -1.655969,1.65597 -4.39522,1.880216 -5.278404,1.769818 -0.883184,-0.110398 -3.238881,3.396871 -3.238881,3.396871 -1.937977,2.036649 -5.557232,2.37396 -8.5714733,0.234999 C 2.9574551,31.955937 7.8951792,27.281789 7.8951792,27.281789 c 0.5797251,2.358721 2.7066928,4.260938 5.3059538,4.628571 0.629148,0.08899 1.599217,0.129793 2.433804,-0.438729 0.176755,-0.120405 0.454261,0.347514 1.092057,1.038408 0.570152,0.617621 1.91228,0.678122 2.250627,0.43781 4.096975,-2.909847 0.412162,-7.262531 -1.139089,-8.923136 0,0 0.546637,-0.931788 2.864996,-1.594176 2.318358,-0.662387 3.104944,1.769819 3.104944,1.769819 0,0 8.932915,-4.196269 9.966869,-4.750564 1.033954,-0.554295 1.816971,-1.007539 2.266608,-1.397225 0.863558,-0.748416 1.25275,-1.243241 1.397226,-1.67667 0.03811,-0.114343 0.02622,-0.207526 0.03105,-0.310494 0.259779,-0.161799 1.612032,-1.033645 2.7634,-1.800867 z m -26.476345,8.912481 c 2.689124,-0.04488 3.383846,1.87189 4.896985,4.097234 1.388991,1.293442 1.153131,5.404583 -1.241977,4.284822 -1.231456,-2.11304 -1.504545,-1.004376 -3.355546,-0.726998 -1.814511,0.271909 -4.9217219,-2.15299 -5.0265109,-4.575835 1.0743059,-1.828018 3.0327719,-3.050944 4.7270489,-3.079223 z m 5.67322,19.590902 c -0.02916,0.18333 -0.179917,1.034574 -0.807285,1.583521 -0.293807,0.257082 -0.903989,0.422345 -1.521422,0.434693 -0.561868,0.01124 -1.057626,-0.113599 -1.273027,-0.217346 0.01446,-0.06327 0.02456,-0.120685 0.0621,-0.217347 0.320166,-0.606175 0.634735,-1.205203 0.962532,-1.800866 0,-5.4e-5 -0.807208,-0.403702 -0.807285,-0.403644 -0.240624,0.295403 -0.481171,0.636381 -0.714137,0.962534 -0.799473,1.099275 -1.79572,1.518171 -2.639202,1.61457 -0.421742,0.0482 -0.805276,0.0117 -1.05568,-0.0621 -0.125203,-0.0369 -0.204626,-0.09451 -0.248396,-0.124198 0.0084,-0.04705 0.01343,-0.124063 0.0621,-0.217346 0.357216,-0.557849 0.832226,-1.02976 1.273026,-1.521423 l -0.745181,-0.65204 c -0.408131,0.480637 -0.865792,0.917663 -1.304076,1.366176 -0.365037,0.283219 -0.7929202,0.526307 -1.1798786,0.620989 -0.5302078,0.24489 -1.2056461,0.06953 -0.931483,-0.465742 0.3836103,-0.337366 1.166139,-0.761651 2.0182136,-1.148829 4.139246,-2.362453 4.296998,-0.773724 8.849089,0.248395 z M 30.111505,40.9981 c 0.461249,0.313082 1.224833,0.765484 1.956114,1.179878 0.809326,0.458618 1.371877,0.864728 1.738768,1.179878 0.336539,0.289078 0.458534,0.471854 0.496791,0.55889 -0.06669,0.02909 -0.221236,0.09314 -0.465741,0.09314 -1.296257,-0.29494 -2.285747,-1.225298 -3.384388,-1.925065 l -0.558891,0.807285 c 0.566391,0.446997 1.140128,0.888325 1.707719,1.335126 0.06997,0.192101 -0.423364,0.155977 -0.589938,0.217346 -1.216714,0.194675 -2.00159,-0.243871 -2.546054,-0.776236 -0.40839,-0.327281 -0.582377,-0.812075 -0.838335,-1.241977 l -0.869385,0.496791 c 0.487245,0.440666 0.747815,1.056417 0.434693,1.521422 -0.07231,0.15906 -0.206823,0.339037 -0.589939,0.496791 -0.325918,0.134202 -0.639562,0.101617 -0.993582,-0.0621 -0.354021,-0.163716 -0.729487,-0.49783 -1.055682,-0.838334 -0.366341,-0.382414 -0.616754,-0.766946 -0.807285,-1.055682 0.206877,-0.01252 0.408512,-0.01208 0.620989,-0.03105 2.446323,-0.218421 4.296073,-0.916309 5.744146,-1.956114 z" id="path-main"/>
    </g>
  </defs>
  <g id="acyl-visual">
    <use id="visible1" transform="translate(24,24) scale(1.00) translate(-24,-24)" style="fill:url(#acyl-gradient)" xlink:href="#acyl-drawing"/>
  </g>
</svg>
