<svg xmlns="http://www.w3.org/2000/svg" xmlns:xlink="http://www.w3.org/1999/xlink" width="48" height="48">
  <defs id="acyl-settings">
    <linearGradient x1="0%" y1="0%" x2="0%" y2="100%" id="acyl-gradient">
      <stop offset="0%" style="stop-color:#8FA1B3;stop-opacity:1.000000"/>
    </linearGradient>
    <g id="acyl-filter">
  </g>
    <g id="acyl-drawing">
      <path d="m 46,36.644517 c 0,-1.581939 -1.323807,-2.855485 -2.98913,-2.855485 l -38.02174,0 C 3.323807,33.789032 2,35.062578 2,36.644517 2,38.226454 3.323807,39.5 4.98913,39.5 l 38.02174,0 C 44.676193,39.5 46,38.226454 46,36.644517 z M 45.222826,11.361589 c 0,-0.729913 -0.274895,-1.4633303 -0.836956,-2.0226344 -1.124124,-1.1186069 -2.941094,-1.1186069 -4.065218,0 L 24.179348,25.40105 8.038044,9.3389546 c -1.124124,-1.1186069 -2.941094,-1.1186069 -4.065218,0 -1.124123,1.1186074 -1.124123,2.9266614 0,4.0452694 l 17.815218,17.727793 c 0.646916,0.643741 1.551533,0.870559 2.391304,0.77336 0.850885,0.109512 1.735006,-0.120271 2.391304,-0.77336 L 44.38587,13.384224 c 0.562061,-0.559304 0.836956,-1.292721 0.836956,-2.022635 z" id="path-main"/>
    </g>
  </defs>
  <g id="acyl-visual">
    <use id="visible1" transform="translate(24,24) scale(1.00) translate(-24,-24)" style="fill:url(#acyl-gradient)" xlink:href="#acyl-drawing"/>
  </g>
</svg>
