<svg xmlns="http://www.w3.org/2000/svg" xmlns:xlink="http://www.w3.org/1999/xlink" width="48" height="48">
  <defs id="acyl-settings">
    <linearGradient x1="0%" y1="0%" x2="0%" y2="100%" id="acyl-gradient">
      <stop offset="0%" style="stop-color:#8FA1B3;stop-opacity:1.000000"/>
    </linearGradient>
    <g id="acyl-filter">
  </g>
    <g id="acyl-drawing">
      <path d="M 43.90625 5.46875 C 42.74675 5.46875 41.8125 6.4029998 41.8125 7.5625 L 41.8125 36.875 C 41.8125 38.0345 42.74675 38.96875 43.90625 38.96875 C 45.06575 38.96875 46 38.0345 46 36.875 L 46 7.5625 C 46 6.4029998 45.06575 5.46875 43.90625 5.46875 z M 35.53125 15.9375 C 34.37175 15.9375 33.4375 16.87175 33.4375 18.03125 L 33.4375 36.875 C 33.4375 38.0345 34.37175 38.96875 35.53125 38.96875 C 36.69075 38.96875 37.625 38.0345 37.625 36.875 L 37.625 18.03125 C 37.625 16.87175 36.69075 15.9375 35.53125 15.9375 z M 3.09375 22.21875 C 2.9488124 22.21875 2.8127833 22.22841 2.6875 22.28125 C 2.5679605 22.33613 2.4656103 22.472105 2.375 22.5625 L 2.3125 22.625 C 2.2451 22.70482 2.1662209 22.777217 2.125 22.875 C 1.9239197 23.257754 1.9827281 23.733543 2.3125 24.0625 L 8.3125 30.0625 L 8.3125 37.90625 C 8.3125 38.486 8.79525 38.96875 9.375 38.96875 C 9.9547501 38.96875 10.40625 38.486 10.40625 37.90625 L 10.40625 30.0625 L 16.4375 24.0625 C 16.767272 23.733543 16.826081 23.257754 16.625 22.875 C 16.58378 22.77722 16.5049 22.704815 16.4375 22.625 L 16.375 22.5625 C 16.184487 22.372458 15.910431 22.232053 15.65625 22.21875 L 15.59375 22.21875 L 9.375 22.21875 L 3.15625 22.21875 L 3.09375 22.21875 z M 5.65625 24.3125 L 8.3125 24.3125 L 8.3125 26.9375 L 5.65625 24.3125 z M 10.40625 24.3125 L 13.09375 24.3125 L 10.40625 27 L 10.40625 24.3125 z M 27.15625 24.3125 C 25.99675 24.3125 25.0625 25.24675 25.0625 26.40625 L 25.0625 36.875 C 25.0625 38.0345 25.99675 38.96875 27.15625 38.96875 C 28.31575 38.96875 29.25 38.0345 29.25 36.875 L 29.25 26.40625 C 29.25 25.24675 28.31575 24.3125 27.15625 24.3125 z M 18.78125 32.6875 C 17.62175 32.6875 16.6875 33.62175 16.6875 34.78125 L 16.6875 36.875 C 16.6875 38.0345 17.62175 38.96875 18.78125 38.96875 C 19.94075 38.96875 20.875 38.0345 20.875 36.875 L 20.875 34.78125 C 20.875 33.62175 19.94075 32.6875 18.78125 32.6875 z " id="path-main"/>
    </g>
  </defs>
  <g id="acyl-visual">
    <use id="visible1" transform="translate(24,24) scale(1.00) translate(-24,-24)" style="fill:url(#acyl-gradient)" xlink:href="#acyl-drawing"/>
  </g>
</svg>
