<svg xmlns="http://www.w3.org/2000/svg" xmlns:xlink="http://www.w3.org/1999/xlink" width="48" height="48">
  <defs id="acyl-settings">
    <linearGradient x1="0%" y1="0%" x2="0%" y2="100%" id="acyl-gradient">
      <stop offset="0%" style="stop-color:#8FA1B3;stop-opacity:1.000000"/>
    </linearGradient>
    <g id="acyl-filter">
  </g>
    <g id="acyl-drawing">
      <path d="M 35.46875,8 C 35.42775,8.0196832 35.394683,8.0527506 35.375,8.09375 C 35.36346,8.1029805 35.352981,8.113461 35.34375,8.125 L 32.46875,13.9375 L 26.09375,14.84375 C 26.045924,14.848876 26.001547,14.871064 25.96875,14.90625 C 25.954747,14.925088 25.944169,14.946244 25.9375,14.96875 C 25.936685,14.97915 25.936685,14.989599 25.9375,15 C 25.934225,15.020704 25.934225,15.041795 25.9375,15.0625 C 25.934225,15.083204 25.934225,15.104295 25.9375,15.125 C 25.946731,15.136539 25.957211,15.147019 25.96875,15.15625 C 25.977981,15.167789 25.988461,15.178269 26,15.1875 L 26.46875,15.65625 L 8.15625,15.65625 C 7.4874288,15.65625 6.919149,15.814209 6.53125,16.1875 C 6.143351,16.560791 6,17.1021 6,17.65625 L 6,38.15625 C 6.0000001,39.204689 6.8578111,40.062504 7.90625,40.0625 L 41.09375,40.0625 C 42.142188,40.062501 43,39.204687 43,38.15625 L 43,18.03125 C 43,17.752753 43.005398,17.488727 42.96875,17.21875 L 45.0625,15.1875 C 45.074038,15.178269 45.08452,15.167789 45.09375,15.15625 C 45.105288,15.147019 45.11577,15.136539 45.125,15.125 C 45.128274,15.104295 45.128275,15.083204 45.125,15.0625 C 45.125814,15.052099 45.125815,15.04165 45.125,15.03125 C 45.128274,15.010545 45.128275,14.989454 45.125,14.96875 C 45.105316,14.92775 45.07225,14.894683 45.03125,14.875 C 45.022019,14.863461 45.011539,14.85298 45,14.84375 C 44.989598,14.842935 44.979151,14.842935 44.96875,14.84375 L 38.59375,13.9375 L 35.71875,8.125 C 35.709519,8.1134611 35.699039,8.1029804 35.6875,8.09375 C 35.671587,8.0685167 35.650234,8.047162 35.625,8.03125 C 35.606161,8.0172469 35.585006,8.0066687 35.5625,8 C 35.541795,7.9967251 35.520705,7.996725 35.5,8 C 35.489598,7.9991851 35.479151,7.999185 35.46875,8 z M 8.15625,16.65625 L 27.5,16.65625 L 30.625,19.6875 L 29.53125,26.0625 C 29.530435,26.072899 29.530435,26.083349 29.53125,26.09375 C 29.530435,26.104149 29.530435,26.114599 29.53125,26.125 C 29.533662,26.158371 29.544406,26.190605 29.5625,26.21875 C 29.571731,26.230288 29.582211,26.240769 29.59375,26.25 C 29.612589,26.264002 29.633745,26.274581 29.65625,26.28125 C 29.676955,26.284524 29.698046,26.284525 29.71875,26.28125 C 29.739455,26.284524 29.760546,26.284525 29.78125,26.28125 C 29.791651,26.282064 29.802099,26.282065 29.8125,26.28125 L 35.53125,23.28125 L 36.96875,24.03125 L 31.15625,29.84375 C 30.626787,30.373213 30.337893,30.758592 29.5,31.09375 C 28.662107,31.428908 27.219697,31.687501 24.5,31.6875 C 21.768827,31.687499 20.334359,31.428507 19.5,31.09375 C 18.665641,30.758993 18.37455,30.374551 17.84375,29.84375 L 7,19 L 7,17.65625 C 7,17.270819 7.0736929,17.045844 7.21875,16.90625 C 7.3638071,16.766656 7.6443949,16.65625 8.15625,16.65625 z M 42,18.15625 L 42,19 L 40.5625,20.4375 L 40.4375,19.6875 L 42,18.15625 z M 7,20.375 L 15.53125,28.90625 L 7.21875,38.78125 L 16,29.375 L 17.15625,30.53125 C 17.62545,31.000451 18.090035,31.616007 19.125,32.03125 C 20.159965,32.446493 21.70847,32.687499 24.5,32.6875 C 27.280303,32.687501 28.837893,32.446093 29.875,32.03125 C 30.912107,31.616407 31.373213,31.001787 31.84375,30.53125 L 32.96875,29.40625 L 41.78125,38.78125 L 33.4375,28.9375 L 37.875,24.5 L 41.25,26.28125 C 41.2604,26.282064 41.270849,26.282065 41.28125,26.28125 C 41.29165,26.282064 41.302099,26.282065 41.3125,26.28125 C 41.333204,26.284524 41.354296,26.284525 41.375,26.28125 C 41.395704,26.284524 41.416796,26.284525 41.4375,26.28125 C 41.449038,26.272018 41.45952,26.261539 41.46875,26.25 C 41.480288,26.240768 41.49077,26.230289 41.5,26.21875 C 41.514002,26.19991 41.524581,26.178755 41.53125,26.15625 C 41.534524,26.135544 41.534525,26.114454 41.53125,26.09375 C 41.532064,26.083348 41.532065,26.0729 41.53125,26.0625 L 40.78125,21.59375 L 42,20.375 L 42,38.15625 C 42,38.398887 41.92473,38.622217 41.78125,38.78125 C 41.618115,38.962069 41.369624,39.0625 41.09375,39.0625 L 7.90625,39.0625 C 7.6303766,39.062501 7.3818848,38.962069 7.21875,38.78125 C 7.07527,38.622217 7,38.398888 7,38.15625 L 7,20.375 z" id="path-main"/>
    </g>
  </defs>
  <g id="acyl-visual">
    <use id="visible1" transform="translate(24,24) scale(1.00) translate(-24,-24)" style="fill:url(#acyl-gradient)" xlink:href="#acyl-drawing"/>
  </g>
</svg>
