<svg xmlns="http://www.w3.org/2000/svg" xmlns:xlink="http://www.w3.org/1999/xlink" width="48" height="48">
  <defs id="acyl-settings">
    <linearGradient x1="0%" y1="0%" x2="0%" y2="100%" id="acyl-gradient">
      <stop offset="0%" style="stop-color:#8FA1B3;stop-opacity:1.000000"/>
    </linearGradient>
    <g id="acyl-filter">
  </g>
    <g id="acyl-drawing">
      <path id="path-main" d="m 5.7627586,2.8193103 c -0.097832,0 -0.1978483,0.04661 -0.2731034,0.1213794 L 2.88,5.52 c -0.1495393,0.1495395 -0.1495393,0.3966676 0,0.5462069 L 7.4013793,10.587586 2.88,15.108966 c -0.070885,0.07088 -0.091034,0.173086 -0.091034,0.273103 -10e-8,0.100017 0.020149,0.202218 0.091034,0.273103 l 2.6096552,2.579311 c 0.070886,0.07089 0.1730869,0.121379 0.2731034,0.121379 0.1009875,0 0.203189,-0.05049 0.2731035,-0.121379 l 4.5213789,-4.52138 4.52138,4.52138 c 0.07186,0.07186 0.1408,0.121379 0.242758,0.121379 0.101959,0 0.201247,-0.04952 0.273104,-0.121379 l 2.609655,-2.579311 c 0.07186,-0.07186 0.121379,-0.171144 0.121379,-0.273103 -1e-6,-0.101959 -0.04952,-0.201247 -0.121379,-0.273103 l -4.521379,-4.52138 4.521379,-4.5213791 c 0.07089,-0.070886 0.121379,-0.1730869 0.121379,-0.2731035 0,-0.100017 -0.05049,-0.2012468 -0.121379,-0.2731034 L 15.594483,2.9406897 c -0.07089,-0.071857 -0.173087,-0.1213794 -0.273104,-0.1213794 -0.100987,10e-8 -0.172844,0.049523 -0.242758,0.1213794 L 10.557241,7.462069 6.0358621,2.9406897 C 5.9615779,2.86592 5.8605903,2.8193103 5.7627586,2.8193103 z M 37.928276,4.7917241 C 36.560729,4.7917239 35.44,5.9134995 35.44,7.28 l 0,36.231724 C 35.440003,44.878873 36.561127,46 37.928276,46 l 5.583448,0 C 44.878874,45.999998 46,44.878873 46,43.511724 L 46,7.28 c -10e-7,-1.3665005 -1.120729,-2.4882759 -2.488276,-2.4882759 l -5.583448,0 z M 26.791724,13.166897 c -1.366501,0 -2.488276,1.120729 -2.488276,2.488275 l 0,27.856552 C 24.303448,44.879272 25.425223,46 26.791724,46 l 5.553104,0 c 1.367149,-2e-6 2.488275,-1.121127 2.488275,-2.488276 l 0,-27.856552 c 0.0013,-1.367869 -1.121127,-2.488275 -2.488275,-2.488275 l -5.553104,0 z M 15.624828,21.511724 C 14.258327,21.511725 13.136552,22.632453 13.136552,24 l 0,19.511724 C 13.136552,44.879272 14.258327,46 15.624828,46 l 5.583448,0 c 1.367148,-2e-6 2.488276,-1.121127 2.488276,-2.488276 l 0,-19.511724 c 0,-1.367149 -1.121128,-2.488276 -2.488276,-2.488276 l -5.583448,0 z M 4.4882759,29.886897 C 3.1211273,29.886898 2,31.008024 2,32.375172 L 2,43.511724 C 2.0000001,44.878874 3.121127,46 4.4882759,46 l 5.5834481,0 c 1.3665,-2e-6 2.488276,-1.120729 2.488276,-2.488276 l 0,-11.136552 c 0,-1.3665 -1.120729,-2.488275 -2.488276,-2.488275 l -5.5834481,0 z"/>
    </g>
  </defs>
  <g id="acyl-visual">
    <use id="visible1" transform="translate(24,24) scale(1.00) translate(-24,-24)" style="fill:url(#acyl-gradient)" xlink:href="#acyl-drawing"/>
  </g>
</svg>
