<svg xmlns="http://www.w3.org/2000/svg" xmlns:xlink="http://www.w3.org/1999/xlink" width="48" height="48">
  <defs id="acyl-settings">
    <linearGradient x1="0%" y1="0%" x2="0%" y2="100%" id="acyl-gradient">
      <stop offset="0%" style="stop-color:#8FA1B3;stop-opacity:1.000000"/>
    </linearGradient>
    <g id="acyl-filter">
  </g>
    <g id="acyl-drawing">
      <path d="M 11.4 2 L 11.4 3.6 L 11.4 5.301 L 7.199 5.301 L 3.1 5.301 L 3.199 5.6 C 3.699 8.7 4.499 11.4 5.699 14.5 C 6.699 17.1 7.901 19.4 9.301 21.6 C 10.4 23.1 11.2 24.2 12.4 25.4 C 12.9 26 13.4 26.7 13.7 27.2 C 15.3 29.8 17.7 32.3 20.6 34.4 L 21.2 34.9 L 21.2 37.8 L 21.2 40.7 L 20.4 41 C 19.9 41.1 19.4 41.3 19.2 41.4 C 17.9 42.1 16.8 43.1 16.3 44.1 C 16 44.6 15.7 45.5 15.7 45.8 C 15.7 46 16.2 46 24 46 C 31.8 46 32.2 46 32.2 45.8 C 32.2 45.8 32.2 45.4 32.1 45.2 C 31.7 43.3 29.9 41.7 27.4 40.9 L 26.8 40.7 L 26.8 37.8 L 26.7 34.9 L 27.7 34.2 C 30.5 32.1 32.8 29.6 34.1 27.3 C 34.4 26.9 35 26.2 35.5 25.5 C 36.9 24.1 37.6 23.1 38.6 21.6 C 39.7 20 40.3 18.9 41.1 17.2 C 42.9 13.6 44.1 9.6 44.8 5.6 L 44.9 5.301 L 40.7 5.301 L 36.6 5.301 L 36.6 3.6 L 36.6 2 L 24 2 L 11.4 2 z M 8.9 8 L 11.4 8 L 11.4 13.8 L 11.4 19.7 L 10.8 18.7 C 9.301 16.2 7.801 12.6 6.801 9.4 C 6.601 8.7 6.5 8.1 6.5 8.1 C 6.5 8 7.6 8 8.9 8 z M 36.6 8 L 39.1 8 C 40.4 8 41.5 8 41.5 8.1 C 41.5 8.1 41.3 8.7 41.1 9.4 C 40.5 11.8 39.4 14.5 38.4 16.5 C 37.9 17.4 37 19.1 36.7 19.5 C 36.6 19.6 36.6 18.8 36.6 13.8 L 36.6 8 z M 23.84 8.07 C 26.91 8.07 28.85 9.777 28.85 12.44 C 28.85 14.92 27.14 17.35 23.39 20.7 L 29.34 20.7 L 29.34 23.09 L 19.46 23.09 L 19.46 21.19 C 23.96 17.1 25.99 14.86 25.99 12.87 C 25.99 11.42 24.95 10.48 23.3 10.48 C 22.17 10.48 20.91 10.95 19.78 11.78 L 19.06 9.799 C 20.29 8.69 22.02 8.07 23.84 8.07 z" id="path-main"/>
    </g>
  </defs>
  <g id="acyl-visual">
    <use id="visible1" transform="translate(24,24) scale(1.00) translate(-24,-24)" style="fill:url(#acyl-gradient)" xlink:href="#acyl-drawing"/>
  </g>
</svg>
