<svg xmlns="http://www.w3.org/2000/svg" xmlns:xlink="http://www.w3.org/1999/xlink" width="48" height="48">
  <defs id="acyl-settings">
    <linearGradient x1="0%" y1="0%" x2="0%" y2="100%" id="acyl-gradient">
      <stop offset="0%" style="stop-color:#8FA1B3;stop-opacity:1.000000"/>
    </linearGradient>
    <g id="acyl-filter">
  </g>
    <g id="acyl-drawing">
      <path d="m 27.666667,6.2717537 c -4.129782,0 -7.667743,2.5972712 -9.548611,6.3402783 -1.059104,-0.880993 -2.411567,-1.451389 -3.895834,-1.451389 -3.373333,0 -6.1111106,2.737777 -6.1111109,6.111111 0,0.757599 0.12958,1.469216 0.3819445,2.138889 C 4.6564812,21.124883 2,25.006054 2,29.493976 c 0,6.094 4.906,11 11,11 l 22,0 c 6.094,0 11,-4.906 11,-11 0,-4.826978 -3.10134,-8.900303 -7.409722,-10.388889 0.0096,-0.208819 0.07639,-0.399664 0.07639,-0.611111 0,-6.746667 -4.928,-12.2222223 -11,-12.2222223 z" id="path-main"/>
    </g>
  </defs>
  <g id="acyl-visual">
    <use id="visible1" transform="translate(24,24) scale(1.00) translate(-24,-24)" style="fill:url(#acyl-gradient)" xlink:href="#acyl-drawing"/>
  </g>
</svg>
