<svg xmlns="http://www.w3.org/2000/svg" xmlns:xlink="http://www.w3.org/1999/xlink" width="48" height="48">
  <defs id="acyl-settings">
    <linearGradient x1="0%" y1="0%" x2="0%" y2="100%" id="acyl-gradient">
      <stop offset="0%" style="stop-color:#8FA1B3;stop-opacity:1.000000"/>
    </linearGradient>
    <g id="acyl-filter">
  </g>
    <g id="acyl-drawing">
      <path d="M 20.683213,4.6948717 C 10.396768,4.6948717 2.0000002,13.009299 2,23.194873 c 0,10.185572 8.396768,18.499999 18.683213,18.499999 4.476513,0 8.526144,-1.743477 11.745697,-4.352941 l 11.333567,0 c 0.90745,0.02631 1.710396,-0.530955 2.060649,-1.360294 0.350248,-0.82934 0.175405,-1.759337 -0.480818,-2.380515 l -6.594074,-6.529411 c 0.296145,-1.253129 0.618192,-2.484614 0.618192,-3.876838 0,-10.185574 -8.396767,-18.5000013 -18.683213,-18.5000013 z m 0,2.176471 c 9.099824,0 16.485188,7.3129413 16.485188,16.3235303 0,1.643635 -0.29851,3.196435 -0.755571,4.693014 l 7.349647,7.277573 -11.883073,0 c -2.940175,2.693992 -6.877537,4.352942 -11.196191,4.352942 -9.099823,0 -16.4851879,-7.312941 -16.4851879,-16.323529 3e-7,-9.010589 7.3853639,-16.3235303 16.4851879,-16.3235303 z" id="path-main"/>
    </g>
  </defs>
  <g id="acyl-visual">
    <use id="visible1" transform="translate(24,24) scale(1.00) translate(-24,-24)" style="fill:url(#acyl-gradient)" xlink:href="#acyl-drawing"/>
  </g>
</svg>
