<svg xmlns="http://www.w3.org/2000/svg" xmlns:xlink="http://www.w3.org/1999/xlink" width="48" height="48">
  <defs id="acyl-settings">
    <linearGradient x1="0%" y1="0%" x2="0%" y2="100%" id="acyl-gradient">
      <stop offset="0%" style="stop-color:#8FA1B3;stop-opacity:1.000000"/>
    </linearGradient>
    <g id="acyl-filter">
  </g>
    <g id="acyl-drawing">
      <path d="M 8.8629554,2 C 5.9184963,2 3.469,4.3894041 3.469,7.2424242 l 0,33.5151518 C 3.469,43.610596 5.9184964,46 8.8629554,46 L 38.863044,46 C 41.807503,46 44.257,43.610597 44.257,40.757576 l 0,-33.5151518 C 44.257,4.3894041 41.807504,2 38.863044,2 L 8.8629554,2 z m 0,3.8484848 2.1818246,0 0,27.0606062 L 18.62056,24 l 7.363659,8.909091 0,-27.0606062 12.878825,0 c 0.83034,0 1.424247,0.5908108 1.424247,1.3939394 l 0,33.5151518 c 0,0.803132 -0.593911,1.393939 -1.424247,1.393939 l -30.0000886,0 c -0.8303366,0 -1.4242466,-0.59081 -1.4242466,-1.393939 l 0,-33.5151518 c 0,-0.8031286 0.59391,-1.3939394 1.4242466,-1.3939394 z" id="path-main"/>
    </g>
  </defs>
  <g id="acyl-visual">
    <use id="visible1" transform="translate(24,24) scale(1.00) translate(-24,-24)" style="fill:url(#acyl-gradient)" xlink:href="#acyl-drawing"/>
  </g>
</svg>
