<svg xmlns="http://www.w3.org/2000/svg" xmlns:xlink="http://www.w3.org/1999/xlink" width="48" height="48">
  <defs id="acyl-settings">
    <linearGradient x1="0%" y1="0%" x2="0%" y2="100%" id="acyl-gradient">
      <stop offset="0%" style="stop-color:#8FA1B3;stop-opacity:1.000000"/>
    </linearGradient>
    <g id="acyl-filter">
  </g>
    <g id="acyl-drawing">
      <path d="M 3.59375 4 C 2.702192 4 2 4.7263438 2 5.625 L 2 42.375 C 2 43.273656 2.702192 44 3.59375 44 L 44.40625 44 C 44.517695 44 44.6138 43.9903 44.71875 43.96875 C 45.453406 43.817988 46 43.161319 46 42.375 L 46 17.5 C 46 16.601344 45.297808 15.875 44.40625 15.875 L 10.03125 15.875 C 9.139693 15.875 8.4375 16.601344 8.4375 17.5 C 8.4375 18.398656 9.139693 19.125 10.03125 19.125 L 42.78125 19.125 L 42.78125 40.75 L 5.21875 40.75 L 5.21875 7.25 L 18.09375 7.25 L 18.09375 12.125 C 18.09375 13.023656 18.795942 13.71875 19.6875 13.71875 L 41.1875 13.71875 C 42.079058 13.71875 42.78125 13.023656 42.78125 12.125 C 42.78125 11.226344 42.079058 10.5 41.1875 10.5 L 21.3125 10.5 L 21.3125 5.625 C 21.3125 4.7263438 20.579057 4 19.6875 4 L 3.59375 4 z M 32.5 22.25 C 31.629624 22.548401 30.762325 22.936589 29.8125 22.9375 C 26.946271 22.96017 24.085269 22.96235 21.21875 22.96875 C 19.536694 23.016616 17.775566 22.764565 16.15625 23.34375 C 15.707486 23.557152 15.004541 23.643548 14.875 24.21875 C 14.804127 24.600012 15.143547 24.97425 15.53125 24.96875 C 16.409478 24.70194 17.266931 24.27305 18.21875 24.28125 C 21.709303 24.25856 25.196442 24.2564 28.6875 24.25 C 30.120958 24.306918 31.595044 24.12614 32.875 23.4375 C 33.428106 23.122677 33.133775 22.19195 32.5 22.25 z M 32.5 24.84375 C 31.629624 25.142151 30.762325 25.561589 29.8125 25.5625 C 29.368041 25.486776 28.77885 25.690804 28.78125 26.21875 L 28.78125 33.15625 C 28.737288 33.576606 28.809683 34.13833 29.3125 34.21875 C 30.55725 34.264634 31.841457 33.96624 32.9375 33.375 C 33.456413 33.006531 33.062313 32.097721 32.4375 32.21875 C 31.686345 32.523824 30.916571 32.85147 30.09375 32.90625 L 30.09375 26.84375 C 31.061505 26.761876 32.010513 26.474408 32.875 26.03125 C 33.428106 25.716427 33.133775 24.7857 32.5 24.84375 z M 18.15625 25.5625 C 17.485581 25.584236 16.791188 25.773445 16.15625 25.96875 C 15.707486 26.182152 15.004541 26.237298 14.875 26.8125 C 14.798262 27.218569 15.183567 27.61079 15.59375 27.5625 C 16.352575 27.282061 17.112637 26.95409 17.9375 26.90625 L 17.9375 32.8125 C 17.317058 33.194999 16.048134 33.170329 15.28125 33.6875 C 14.707908 33.918503 14.853824 34.84317 15.46875 34.90625 C 16.334789 34.781442 17.143117 34.22551 18.0625 34.25 C 18.502183 34.276667 19.16664 34.272465 19.25 33.71875 C 19.2568 31.375441 19.2479 29.00298 19.25 26.65625 C 19.281593 26.258777 19.24846 25.759034 18.8125 25.59375 C 18.592263 25.563488 18.379806 25.555255 18.15625 25.5625 z M 20.53125 25.5625 L 20.53125 34.25 L 27.5 34.25 L 27.5 32.9375 C 27.46839 30.505855 27.509 28.016772 27.5 25.5625 L 20.53125 25.5625 z M 21.84375 26.875 L 26.1875 26.875 L 26.1875 32.9375 L 21.84375 32.9375 L 21.84375 26.875 z M 32.5 34.8125 C 31.629624 35.110901 30.762325 35.530339 29.8125 35.53125 C 26.952965 35.55407 24.07857 35.52485 21.21875 35.53125 C 19.50044 35.579223 17.743938 35.361093 16.09375 35.96875 C 15.642409 36.167145 14.8657 36.27209 14.875 36.90625 C 14.876584 37.251129 15.186622 37.569 15.53125 37.5625 C 16.407876 37.288747 17.298584 36.83755 18.25 36.84375 C 21.704489 36.8209 25.138972 36.85015 28.59375 36.84375 C 30.058112 36.899586 31.56201 36.727946 32.875 36.03125 C 33.428106 35.716426 33.133775 34.75445 32.5 34.8125 z " id="path-main"/>
    </g>
  </defs>
  <g id="acyl-visual">
    <use id="visible1" transform="translate(24,24) scale(1.00) translate(-24,-24)" style="fill:url(#acyl-gradient)" xlink:href="#acyl-drawing"/>
  </g>
</svg>
